{
  "type": "service_account",
  "project_id": "saf-d9vz11wywbi4gg0j712476q6sb",
  "private_key_id": "7086df0c419b6b55274df7712e01c74aa45bf802",
  "private_key": "-----BEGIN PRIVATE KEY-----\nMIIEvgIBADANBgkqhkiG9w0BAQEFAASCBKgwggSkAgEAAoIBAQC8Qm4O000DiwtV\nAWhvAPQ7SiZ4g2o64hR9luzFMqxIAQWBOudmGNWRlxPIMfRZ1O7K05tBDAlproUI\n23siSKLeI9W9bpsWZFMg257f8/twVpQaz/YPr8adxRQ4PMxaqy2MmTvLYjHsLChF\nKBKq2rehcXiKmd0SBi0qCVARqbzHB+01tqUtdsQnoBszD9B8sCJHOCnUYzcKBzrt\nyV3TSTrrkJ00E7XoQd7T6HctWHjVh4Ti9d9GW0kcD8OU7J2LN0TA/NJ3w9mdiL+8\nRz50h5SwO2S3JQzvgQM7cbDykA8HcrY7ZLNnSMxScQlngg3Uqim/3JKCzq2UjqSF\nc2SOFp6PAgMBAAECggEAEYp1q2dKugrJj9kQEaUFce9zGDApGhAYl/8TqT1odKkL\ntJfNbw40pVpt8G2fIS5INZkefSK8Tx7WAcDu1H9EwEKXLA2oi587aPNYS/D1Zj6F\nkYimRPM8I//J5izcCZKrgs8q6sSydsPtLfcRjjPPf6O39zS7jBi2j+p1jb/CpB9S\n6R9Rqjk3/XYpWvjGjGH2b84pXvnNMKkhsbE1argpb9n4kqleKueJYlk5mSy5cPvb\nJ7ptui2sYUU/3pHqzR3mqVvSr7ZJMJ66QZqRIW7Hl1K/w8ksdFZo1izfDeHsTLJ/\nhF+jWBG3MLWmSU0XJptefhTB5asZM/qCLlRPMNqrAQKBgQDtr5wXBJUvUQj73Dxo\nPyghUFbp7eJWR1iFMhmC9NOtLA/ZXYfu266Kuw1LpSyNXJe5Z42SteQztnh0I+M1\nX/PjJk/7NvsGntPZcT/gca3uiUfTdh0dyvvHGY26YRRZ3wTldCgavb/QMPXvIZBm\nW/mO6cD5+P7mW4tKUs+gPQpDDwKBgQDKw+AqHvpkKg3UfF62NjcSF8r3fhB1qwKS\nAfDuDx9PZJv7zsAs4mJ9Qco/w6lmR3RLuuW3NOo9DxqjK7Qz0aD9/yHHMBYGFwMJ\nWveZ4M/aE8rCC3SBpP6Kb28AG/jbL0VgzjQZAL9yZMZs+gvZ/PquCFJnrewN3GNH\n8JpztFfsgQKBgQCamsDYRBXaGkbStNXiJTqwOLbgIOk5n9zXftgTU7cgjGmexPT3\njJPDD5q9WqpZJSJX6iCvjnrqnEVLnlBbVpeoaDJcQM4V51f7t2uKTceKQmejB9A2\noeMWBewnkKAROTzRF7ZCdqx++mnuaxGnUypIKIpqzujW5DL9XFJLc4jqRwKBgQCk\nrEncy4XdXU4YGN2uq/8zwYEEWSyy86zFua/bFwr9pp8L9VCb40vLoGfKO3TTbQql\nCmfPz7jA2AhxJmhWgVR3lAHxzDrGvV+o9GkMXslPui08RKNdOwvCkFecxhron85/\nnVgwSiwxkmiYTsbbRhqsxnNuYpDIfQlgfqZhe8DAgQKBgBowEaVIAAqecRWH/vF0\nqzNoPIxNMxvHW/tT8dtJrkq88yPn++aTgHdjNFLWIKQJMtO7bgvXEcqbqj2ngAOW\nDhBzuS99yBLWwMCpNNRpllWLWoHneCbNDg8dLIIeIo9JT5F/3D6TqgVYxl3s3QYL\nuf0Urkuo+C5jg0awbHdyowKw\n-----END PRIVATE KEY-----\n",
  "client_email": "mfc-hse4t96zb85tphz-kdikd4zyuc@saf-d9vz11wywbi4gg0j712476q6sb.iam.gserviceaccount.com",
  "client_id": "113975357428081761901",
  "auth_uri": "https://accounts.google.com/o/oauth2/auth",
  "token_uri": "https://oauth2.googleapis.com/token",
  "auth_provider_x509_cert_url": "https://www.googleapis.com/oauth2/v1/certs",
  "client_x509_cert_url": "https://www.googleapis.com/robot/v1/metadata/x509/mfc-hse4t96zb85tphz-kdikd4zyuc%40saf-d9vz11wywbi4gg0j712476q6sb.iam.gserviceaccount.com"
}
