{
  "type": "service_account",
  "project_id": "saf-d9vz11wywbi4gg0j712476q6sb",
  "private_key_id": "db712a258370d73da43bc7bcbfdb1c4084a8d5df",
  "private_key": "-----BEGIN PRIVATE KEY-----\nMIIEvQIBADANBgkqhkiG9w0BAQEFAASCBKcwggSjAgEAAoIBAQCKAUMDU5LrrCfT\nIOzRRo5ITIRDc3ntipI38Xbu9jhyB5I5iicO60ehKrgHk+yMTtZZR+IlrffGzoJA\nG/BnK9zzJd+FDPN6zUyaTpnAyIp0VlJR2mq+tfapzza+wJCJM3ifwioGBImA2JA/\nz2RCBiU9t6Tqk6/URHoE9eHOU2VG9Gy6y1cWJNPEXMMgmPh2/3+QDuY7x+pKvPeK\nnV9f+FkxQ5LlDhXi5j3UoDr+uAzTpJrS0UTTGVgwZ5JSmExNsZqK1Q8HF429APO0\n4fni3qFwj/uQJGU5QmYwnEy0pCqkRZZsm6esZQTnJQKGRcdi4843P4rpfYHrKDRp\nLVv1xRHDAgMBAAECggEAL83HFkhlXLCKLQa7MbTkhWPH7wt5oVB+XNWOMrFklQ9N\nVhQmenMCoW/IRou1hVarxkpxqkasTRfso2NqL3rQswMb/Z0iXBfwYIU4mkB9QVZD\ndqoXjs8+Tc0C9CmFB5mmP4TFBMeej9y0fv4KhxpU3R+Xh1A4OGmt8LjxioR10RFI\nulSWOQz6GgX1zgzr2OSKTytHJgswHpbQDe/qYGwRW5S59CTHw52tbHnxjvVVnCZ2\ncInmaHxmYj0UzsQSKaZODazHIC37fIKyyzx7nQ8wUOUviY37oZMHfniZIxLTDXwq\nqjYk8jgf0+OU1+mrAe1u9mJCIHFAgMth8IhMPLGkdQKBgQC/CxGbYPTqqbk/lK8s\nnTeTdW2vGhraOLKzud4dJWhyaRHIpfeMLackbho5gOuPf4Y89WOyWVaJm1v2V7BZ\nnvRrOCXh32Kd67jtMlAc0zKEzj3Tt3SSxTzH58bsidrIbDEC2Wk98UgrWf7DDjc2\n+GnsTtJd72JgLvhWZT2RJRN/dwKBgQC47ZeR0Y6q7fK34zuGpawT3od0oatekhmd\n25WdmcuTOZfJxjcUAIZ8ieOTF768m8POseD9niAInGpFkszT/vZiUo529N6rmUGV\nPEXWTOEaVppYQrdxbsbEL4+pTQGqKVbR/NzSBpwomIo8kLUzvgEB/4Hvpstgl2XS\n9Cy5LDqLFQKBgErG1llvFe5UCIJufDKGRx6ctBX5rdEEqE3Yzqux3LQLlD5pV/+y\nTt3firw/TfSZAb4SfrdsaIbsHI7Lu+cYZKsjCxDiEwOlJHkTXHAr6nY5E9Iu2J4q\nPaQxgJdNTilsz7JBzwPD0W/GhgVrJwmJKkyofYbvEB59xA5tCjApxvv5AoGBAJL1\ndRsTbo4VlGpf8SEarXoIwJqGE7qO3j6djvN0kdwIy8A0ffauSDHWHnz5RMF8A4pR\nv5usuoY9TxLFC3N5TXFra/3KsN2rZ/vhrxoTdFvK8NMtCbziLKEhrsf7A1Snj3BG\nw3FAgX6dYlWpJebdms1ssGSzpzG2ftu64YOySz/VAoGAKPvIazCO1Cm+IdXMLdCJ\nGNWGeCEFhwieVg13uKLESVWAWl9zuBIKYIIsqSFBj4zuM8J7X5/alsVf8xytnQR9\nQI8AjKlWkbqssJQiTfObnW7m5o6sXW7BvzmI2lbpdmSuMCltABzCLUkU1+D1Te64\nOhAHYkJ1Bggec92oyGRFISc=\n-----END PRIVATE KEY-----\n",
  "client_email": "mfc-y97ahacn9o7figqe5upgakct8n@saf-d9vz11wywbi4gg0j712476q6sb.iam.gserviceaccount.com",
  "client_id": "110905936782534079305",
  "auth_uri": "https://accounts.google.com/o/oauth2/auth",
  "token_uri": "https://oauth2.googleapis.com/token",
  "auth_provider_x509_cert_url": "https://www.googleapis.com/oauth2/v1/certs",
  "client_x509_cert_url": "https://www.googleapis.com/robot/v1/metadata/x509/mfc-y97ahacn9o7figqe5upgakct8n%40saf-d9vz11wywbi4gg0j712476q6sb.iam.gserviceaccount.com"
}
