{
  "type": "service_account",
  "project_id": "saf-d9vz11wywbi4gg0j712476q6sb",
  "private_key_id": "ace97182eb46870e10c62856bfad19e750680879",
  "private_key": "-----BEGIN PRIVATE KEY-----\nMIIEvQIBADANBgkqhkiG9w0BAQEFAASCBKcwggSjAgEAAoIBAQDAaZ3yVYh++3ZG\ncFmaXlqUP6UjTf44S4RmYgSZ+Uzuedfg8dmLaS89Xrnc3yOOLfgQzlOgsrBmHxWJ\niyZzV+53hnu7SQ92+jyc6SE4tlyWbWCGA5LXjkqnxSei96aRx3AUIFetL6ijJc6I\nAykdqcPckckR1ibTehywG31Ri7fCZvAzGpWJLtSLnDjMcUOiFrl98DPWVvUyDJfm\nMyWC5yOywMqx3VvO8PUEpOvXZNYatpLX8NMwIoHtlKXyIodNL9GuVlwv/ngCWiju\n6rrofSUZ5SBq8/ZyeCqFcmg+JfLXqyPg/P8xh9D0pXVswwGxCbU0KdqbWDGmBcgo\nz8U50fCPAgMBAAECggEAQRq7jcaxM74kK/tR5jCs12Kdns+CCExNFVNvGSZIiJyD\nliJfKJPDnzFRFFIQNsiJGi6mD0bG9xbnc624qeiD0L+ZWCqFaA2Nus4LJqRVubRy\np4XIBtWnnxLPsY24N7VS0AyNfhUVK3bcZhsjq1zI3/YYIcfjRUUZNeFnStNKryUN\nBkDR7at1NtvJyChoEbDkPBP6ovwHoVct1yVC1yaShE1Cn2MzhLT+C0+sKHE8mfNg\nQwhqyLnhft5n8rJhOz8bL0Zb8ulcBjoYTbUOKMoPH9v7VCkLPUyorA03hGqnd+y+\nPpEsXF+Iq1/sIaVYVayRsymYykIKWZVtfkkXp8R7qQKBgQDrfseZKVj38jftd0BO\nKn5NZtgjE+8iDqU4KYJGKS8qpYRm7jT5+uXkzGcNIdQ88ooVfyeK4DkDXhwqJmLh\n4k+IRzetLnOChPkjWhrB+NEVkVAIHtzDmmA+tVp37Qh3XkcGodKSVr1pQns1YZNO\nYg3P+ddzKlnF4pV0t3warYUJ3QKBgQDRKoTVQX3tqInFn+fAmoeUYYfavjIW442e\ncXcvQcg1U8CiGOeT954Y7qvxEE/VO4XOpnYp+LJvmgMOAZap9XPpyV5814dYo5QW\ntEFsDG1RMC9IER3ptJ5G2EelTgH5GFhlA/jalEE4jJSsYfAf+hwTx0nrXMgEHvdl\nZdJbSO+7WwKBgDcHLvjZMpLtpKf2n64kO9M2XvcDZ3Ob3HudJ3XhlcXvW1r5+qMX\nP7URFlt5NjDvs9iGF+VZs7jXutkWkzCZQ2Bi093B5vfuvpDGM050J9dUV1EudQO4\nBRliIzu2xa2u+AXStnO/lQ8Nm+DDZjqAqx2YEgI1OTkGU0osvfE17sp5AoGBAKQv\nHvOSo/mQSQzidvT9l50GbbBriT/kQL71S9vBZBlP866JpAXG4ceqWTcxWakEPwU2\nLxzFBbOKjglJf+1LKUCC+3M9bxVJ2a10ssHQg2KuUv7byMIxL+hmTt7X+75+uKwa\nURWqOAPefblOa0F+ftmbnk9sleh+Mi3aniNffiZvAoGActB99IpOwuTTtSKyD/Tb\n6TM5c73dE2U/6jzRawurCzYHzE5It48yls/rm/YOaRuZvGkGBnhGpyHD/mlj8Gwp\n9o4SDxnIOsmmY8xq2eQvMkWTGV1dmenmHsZBDWjSsGYbJnuDdLYbWodr+FaVPi7n\nl7MKHAnCcjuiQE8Ep940zdc=\n-----END PRIVATE KEY-----\n",
  "client_email": "mfc-ke8w7k9inxp8txv0ma8amhujdt@saf-d9vz11wywbi4gg0j712476q6sb.iam.gserviceaccount.com",
  "client_id": "112314759110432717297",
  "auth_uri": "https://accounts.google.com/o/oauth2/auth",
  "token_uri": "https://oauth2.googleapis.com/token",
  "auth_provider_x509_cert_url": "https://www.googleapis.com/oauth2/v1/certs",
  "client_x509_cert_url": "https://www.googleapis.com/robot/v1/metadata/x509/mfc-ke8w7k9inxp8txv0ma8amhujdt%40saf-d9vz11wywbi4gg0j712476q6sb.iam.gserviceaccount.com"
}
