{
  "type": "service_account",
  "project_id": "saf-d9vz11wywbi4gg0j712476q6sb",
  "private_key_id": "10865096bdf8c5eddc6d8a03546fff02794c6c8a",
  "private_key": "-----BEGIN PRIVATE KEY-----\nMIIEvAIBADANBgkqhkiG9w0BAQEFAASCBKYwggSiAgEAAoIBAQDcnFL7R6J8G9us\nqoAHe4WKl/GeyDGWLXHzQwn8HgqLPkzzwonkBkgPcS3dn3pJMgn1bAdV3KuilhFp\n0R+qwaBPyEMr8KIU+s6s4TPxjGoiF0x5r4UxfTYvGYf3T+UW3hH1rDEpI3bzG8WA\n/67CfFE0cuzylyP7DjLAAXjcalv6Q8jbOwdRmO5hfdGKesVQWVy3uOclsvBAIZdc\n1LTW8yu1rsgCtCMHEbKpU9B01Q/i2ipcB69nJd+5K+d8YrhOx46vxZzEv6R0Xkzn\nGcDqorMvx2M/FLbS0BeCrRcjhD8J0J2UY8TqDOpjGUkSAMOcyak+rKFQa1y6JrWd\nE8n0ul45AgMBAAECggEADchsfMuEcMmSx25dkloaxUZp75glVPMg5+hb0tcTpJBv\nYVlZoRftX52cFnkUvEb2jVFDAg/H32AN1XUdy97OA74IyFF/5tymlfF5+9DgfqHD\nAuU+5pEilf27220v7GZSa+1mouHW2Ch3hfAzfG4k6qh1elCMDG7eJ9XPtcGlXnTJ\nASL7BVJy4C2+WmsUwOSdIRBXmMV1sjt7k/OABHlJ+Pkf5kXJqYz1lYbmTxJP4PjF\nYhp+Q4Z5yWtisjKP1WrTcnzPwukpaKzgIQJNZjboOe+XdaNgQS940IQVOZBLoJO1\n/RZe/Z+EKHrkpwu9PT11gR9zKQk7K/1aPBRuYoDsUwKBgQDvPI0vBIV84SqaRcbY\nQA8iHcmnPdMuVmssjfr7p1mWEkWcFyzpVqZKkehnh3/FGoNE2PmPpR6Au1EQLU8w\nCE+uXL/J5JV/mt+roAyBcImel4gXqG7kr/IFmOLf9SwLKSSs1m692dZOoaKqCk/N\nH/fxiMzA+5+J5KYhkNsiFaEUhwKBgQDsEajdULRFaic6om3DvNSHNkZdgNUxcRg/\nA81wiTUVEyoYC081epxqh942UQy0xbxBVavYqxFi7+bGlC3iPzyk8HBw42ut4PLH\nTHba2GUEqUPNryrAUDayOQNIraPP6VdXwte7ES6WgQfCg/5ZLmcx0AMPGWf+Jge9\nISf234xnPwKBgEiHphIUH9hNd5oP/4n+WdgxCbrvboAE6Tc30FjNUsbBwWLiT9Zq\nU74V4EzK8ryyHgwYcAjRuZ6zq47o/bIFQwsMyYSPDZgDPz6MJl5z3PU84aCyivRA\nN3Lk+BuH/BNiJOFVnXtneKacMHG28JyyzXvnypPTdXnb3VYd0aHSxuQvAoGAMYzT\nYQDbleZeLZSCbZ9pDKh7xIySMzqF2FQ3/vMNzUqkfz+AdL0zr7itD8GbZSZMCXqu\nA2CE2bt5OR1JNEAJvqUpNMjHhUu+Kc8G85CQQ5YzwSyPUKaFlIsbAVpRFAbqamVf\nWsiUesrCkjWaYaW3y2DaA4VVqqbY4P3goZTyp4kCgYBbyQXXsjpciM6WNWf1nynn\nG0Xo/F4VPoVELLK4mV1d+scvdKmEeNNj8R1XIYyV+qsss8NXKXVbBiHkK6qwYLzE\nUqP2EyftZraBeeojjTmGk65+Ov9dkG5qgVLHOA4Zz5SlvhEjwtbk5aReTwC2T14H\nDN+VNcI+QS3NChyUVTZASA==\n-----END PRIVATE KEY-----\n",
  "client_email": "mfc-9engcc4fqsccny9oz6ee8j1tcr@saf-d9vz11wywbi4gg0j712476q6sb.iam.gserviceaccount.com",
  "client_id": "106622083192427927557",
  "auth_uri": "https://accounts.google.com/o/oauth2/auth",
  "token_uri": "https://oauth2.googleapis.com/token",
  "auth_provider_x509_cert_url": "https://www.googleapis.com/oauth2/v1/certs",
  "client_x509_cert_url": "https://www.googleapis.com/robot/v1/metadata/x509/mfc-9engcc4fqsccny9oz6ee8j1tcr%40saf-d9vz11wywbi4gg0j712476q6sb.iam.gserviceaccount.com"
}
