{
  "type": "service_account",
  "project_id": "saf-d9vz11wywbi4gg0j712476q6sb",
  "private_key_id": "ffd2e813bff902e40c07a70a9b8d0d1d456aff2f",
  "private_key": "-----BEGIN PRIVATE KEY-----\nMIIEvQIBADANBgkqhkiG9w0BAQEFAASCBKcwggSjAgEAAoIBAQDfhV3hYOrRRBUB\nV1VoESBHFBIfwCGGWL5y2PWhKy4Kz8vPKkAjVuhvwzaQInGzt0g7h1FQdecPdDHo\nMFSSGaopulSkk00MTA/bBSY7lLwYdZdHDKIvUEfcJmlQuBnIIQKho1eG7h2SBvi9\n6pVZZlbJkZReIf/MlkVQV0blOIP7MCIkNAYcii3y1W+v6XCS1v53CMvX7ibfsrOl\nlncfu7Cio+hjsiFL8F84B0qbeUt1N29elu40/7Gd4uhScel1itCRrJ0DiGuiHEk5\nPJIwMEEWrI5nqL7DPY6sCGGc2ZttbhUBNGZQ3pnoL8LLhjQZjujkvYo+l+BIAXIx\nAaORDFfHAgMBAAECggEABgremSt74uuv6a5eYlwm1DpoVwVkTUke349FQfXJ3oRJ\njTB7irkHEDu7FjW9fySS8PuyfgtXPhAKaALOdniief2jMM5umcjV8OTNvh9CNSMQ\nqNy1kbPeOBxYYn886y/BQ3SyoV9/MHsRxF3lawTyOawUJ7X26qVGpb+w7Jy/gfh5\nNDQlMTUT2JIc4DXj65qMm4/TyC5F0kj2eVPkp8NDRDfzh96WRH2dNc8gs9icjksb\nz24XRYXPrvZKmNYHy/D3nKEHt/+2e55QAoKrSidwA/bl15n2RoUF6x/rMe09P5L8\nEvwYfMMtuIKGYjraStkemQIzMz/9QndvRBt84PiWiQKBgQD0Cs17crsW7ESJlY4a\nIT7JQukE60mMK2j5fWypk9zzIh0MueLgh35EMTdHEnGmYFzMbtFAvEVTrRVV0bBU\n1YLLJ6zhi1aIFJ34QBSBfGGMAYAdeEg9YElpPofXGaFR7teuFAwcrOzfxgTvLinq\nDmU3wHbKITLLA8wSpEB2IimpSwKBgQDqeSbC6vx0Rt99GnymOxmAeGiBa5l6Tfej\nxB5XitKAgMjI55bIfJmMWOLSHwUtsVgkFkVPs24K++7Scss39Woy8NFlGr1Oh1uY\nMAPr+kPSTy1usgrWL0btfHT7uVfoFR6RmwKyzm0nXq0IlYYFf8KmSTNPPvyuzPJR\nNuk0fs8Z9QKBgA3AchXLwEkpZS9PkyNbzjrvH0xcqddRNuggLjhcEa5NtM9bxjIa\n0H2tPE0v9+GFOpV2hSodsdZmQXaFi2csZONnx/EpteWTK9eqXL1zMdf+2aZPedqj\ni19325W+Zv3D9Lllfc073Vk6wlpsAoai6wc6PDdlqYQRIbXHNa6yfCCDAoGBANQU\njRjVD0/lIxS3NnPtFN39Cxm0x3e2uf1o0MECEfCli/cccmgZO5GUfGTuJfL0a/MI\nKd0zQJ+yzIuRxXpyAoLdC6lVjFFRYWnAVGvHTD0X3NI5PFALJy572hwtwvNq1uGA\nweoViOmJWx1ekYC71MYvg7d0E33QZoVLE5il8pFZAoGAFzxNkxKA+iUW41c96JbX\nGvSP+ZgGjZKFnjfcWoMDVDSspcUGmOVxxrUGc2SabL4w2jBp55vU1kPJyinzfVmf\nwEUqwed+F6264CDlHV1jh7Jl1JAUICUhXwJ9Ni0UUrzyOKWUIAu/sP70YEWj5R2d\n75aPflMMCZn0cK7Bm6kOC4M=\n-----END PRIVATE KEY-----\n",
  "client_email": "mfc-f5--s3vhgrqrzxnpbq6gidg7xa@saf-d9vz11wywbi4gg0j712476q6sb.iam.gserviceaccount.com",
  "client_id": "105817899707833629965",
  "auth_uri": "https://accounts.google.com/o/oauth2/auth",
  "token_uri": "https://oauth2.googleapis.com/token",
  "auth_provider_x509_cert_url": "https://www.googleapis.com/oauth2/v1/certs",
  "client_x509_cert_url": "https://www.googleapis.com/robot/v1/metadata/x509/mfc-f5--s3vhgrqrzxnpbq6gidg7xa%40saf-d9vz11wywbi4gg0j712476q6sb.iam.gserviceaccount.com"
}
