{
  "type": "service_account",
  "project_id": "saf-d9vz11wywbi4gg0j712476q6sb",
  "private_key_id": "58f33f50408e1c26cd5296f559e80f41af23a126",
  "private_key": "-----BEGIN PRIVATE KEY-----\nMIIEvQIBADANBgkqhkiG9w0BAQEFAASCBKcwggSjAgEAAoIBAQCe9DE39Ckc0KbS\nPB56/b1vhnkMM85XItxVIk7/1s46v/upK9/Xd5LYA+rjwZPlNcFIuKZxS7XmXl2B\nd6zErucbDiFYLCxlDqlI/PoUE0RHjYwR3j8jo05QDBmwHKJHE1sV9SIhTCs79OWt\nmlAm2wPtS0rVvAlA7lrIkLX2FHU9uOtubKXiitmqZV9uHi2fOmTs3dFMbuyeXfM3\nufXlAMIG50rcINXgQZaRui833giG/t4gtnUB3binx9g5kByggWGT5Fwc2FOTBqF1\nG1AY+mE2vyO1lRNurRdf+nISx3wU6B0U705Dgt338/H0L9DbwGHWIr1VpDBTwfLE\nWt/my/FhAgMBAAECggEAATDP6pJMuYodlHRoqmAFX9UTHzfcdejNW4zmKG1Ik7Dq\n9sLc9SKl6gd+JlvFmsFa6TYgNw02YltMGi4WOviaw2gzxeg6IpKoICNsUHiuzwC8\n2chp/X9vFNNBC6xB50Q6RIaWzXGM3wYwBJYj6g/uGQRdSI8VRv7SFW+yET2+KBVx\natiuFdx9xfFezFAhbAmzqePPV7gLPqLkYcGVZtRJNA/mxoU55tn/GWJl1qy29Z5n\nqTXqzzAl30HLGwGIQeM9d/BZXJoN2cWd4gQJgutRra46AvvcWP8Uaj9rxd0Gxvx3\n7JUczZSkCiT5pcGFTDtLmQST1BAkT8ktzCts5s8VbQKBgQDTaXTfZCNh2Jby9LFu\nW/c0qFOcZgGbigkiZHzq48yUFt8o9JlFF+ctKxr2NdIpMaHlJ/PBlTElss2LwTb/\nTzZDwuKC1d14fG8U8vtJVBOBXVTAO+VkxZqylp4Y3Z4qmkuWNQPjMiDPiDAJYep+\nMAP+hT+b7GhY4x5sladn20eN5QKBgQDAemwkmSIV3D91M0fGFZzG4d1kCPJl+YjS\nvy4DAsHfcryPXh7VW/uz/YDRSK2iD20USfBzJDYrDznQ/EvEOxayTLEJlShsMSki\nDwISLWpSWzmeEyck5GJEzlA2pGIhBM3aU8xGxKs3nVfPrkyYdc1AQePzDpmOCW92\ntEF9ZfT9zQKBgEWBBCV1XJSMioPxomuv3IP5WxOuDZU/OmWON+tZXSbKpi9mywUG\nKMCWzVRouWFFqf4WtnLMQ84rDJyHtzcUqbh5V9K/0QINls+CWs7uz0LWlkhk6LPK\nq2NPVUbDhX5oH7WQVGjbUCIqmfBbuqYlzwpccF8ox92BPb1hLhpc4xdpAoGAeasp\nPv05qZ3e0yQGQ7WXs7REsR5is4lILwfAexC8IpYxkWLKlM4fToh5bFHHyEB+ECwo\n/W+vegqW3n8NGc7MKwsFgewycCmnOatJANqKceLOihjLTqu7XokX9WJ10S9rPI5p\n+3YIURB52ILyUhFtHChKgnMBJ+LY/a02FKFleyUCgYEAyQMtNaeLxBiqrCSv3hwi\nzqgy0IRWMV5/vq4s4CXctmIbcT/RbdaLLT0I+bc4Ym4qOp/9OJFJwf6R+CzPfIOD\n9mcuUkfhuO7u7ITMyPGFwtXJFA3RRZSUL7SAbhRnFZHew3ShxyqYaz6cT/uuCTu1\nWDTi2IH6/9N+HIJLajUf8MI=\n-----END PRIVATE KEY-----\n",
  "client_email": "mfc-85o7mjitbhsy75f1ugpza615go@saf-d9vz11wywbi4gg0j712476q6sb.iam.gserviceaccount.com",
  "client_id": "106878726467409241698",
  "auth_uri": "https://accounts.google.com/o/oauth2/auth",
  "token_uri": "https://oauth2.googleapis.com/token",
  "auth_provider_x509_cert_url": "https://www.googleapis.com/oauth2/v1/certs",
  "client_x509_cert_url": "https://www.googleapis.com/robot/v1/metadata/x509/mfc-85o7mjitbhsy75f1ugpza615go%40saf-d9vz11wywbi4gg0j712476q6sb.iam.gserviceaccount.com"
}
