{
  "type": "service_account",
  "project_id": "saf-d9vz11wywbi4gg0j712476q6sb",
  "private_key_id": "2aaa521427fe844c1b6074ebd3c4634ae21c4f15",
  "private_key": "-----BEGIN PRIVATE KEY-----\nMIIEvwIBADANBgkqhkiG9w0BAQEFAASCBKkwggSlAgEAAoIBAQCUqnPHoKuoLAFS\n/XUWNbaG4ClVczrgAsCOqrcethsefxw5ZsKBfgodJeTJXP6Bfu1V6Z501w98i6t8\nHEmicOzMk6cjjn/I4mKUGoSCstpghMJ5CmuMqTW1L+iVtERnglOoZfhQDxrDCd5x\nLYdbD1f6INi6tiX5utJza5y/7EJ5WWAktlPmJaL4U1W0qXxRFav41zuW0K4bZO9Q\nmBEAqCdkXppZvgZtC83mZ9KtzX/LNjh4/Tj4ux4kXO5xjqz0qZ/I/PK5Ha6mxnR3\nYzwn99OMBISsMyAXw+3kWK5H+fqdAJTAxIC0Yf9AEDYMjxGxtr3a2DKdR9C9KFhE\nAF4sLRNBAgMBAAECggEAAtDshOjcTZEJVKKOWO2LK8iD4e1vDWKh9gXh9oIHtxr8\nbHIvz6sE+ya+S+nv/IEccvDcJn2TKpZc+QqyYqJJ2wl2PF5A+Yu/xytOLKlhiXvk\nUO2HimRjav9phAn0VINfjTBizPXvSWfmw70ze+ApWAiuoFFOXHnbbhIpF8nce77U\nM+hrL9VivMYWl2lwMYAbiqfdmU5dWkDSaclBGp9Vh6cbwK8kRvMVyRAUcqivrkaM\nz14SD28HvkVFasozdBsF+Vh4YZCbQqdg39cgeDfGqolHj1uAWVd7C/TVnAft7qVJ\nFpgrZItlXFTbYUvF+m20Q2m3jtIqeRLx2O+PPhLXwQKBgQDPDBCuiLIdwk6r1faO\nmmObOihezpr+f+7iVQU/+LgJH6dxrit/IhkqGHifFhqNkePmuo5lJ1Sce+wRPnBa\n30UCBdFxEAo8nxxhh2CTFQT0OPtgI7/8BRBNS1eZiuyr9Juaa4EYufFbbecXyWZp\nsETSzfm4S6F/jDUgiUm07OWfIQKBgQC30L55m939HdL+fo8hBYxo+a3RSfn7AVUz\n6/T/EU7AVBNXrYpQUXwcAjyvBqcBiwY8KP36x0OyiGJ+Wufu9gPLww10sAZ6KQrL\nc+IRBjdLXey0RgljfXBcUM2DqDQfGPENElU1IOdPHGQTwKwFhSN3XdzzOp+rrpOG\nhvXhS/GQIQKBgQCQSFIfrnahMlTsflAxE/mxpJeZadSs4a4w3xqnd8WX5g0jtUHu\neG6c3SzBf//FBBOTKBIu/3eBDQJ3CdH2IXzPagqIBat8j0yR0mtEU/N91W+nkYIq\nN8UieAx1nVBMjEsbEyuFdZ5yHmZaNyk9IW70kEEjYuEKJ0SmhcVtZWCmwQKBgQCH\nJPpl/qsfxiWy5unkpWeuZqPdFD6uxTQXkIv4XIlB7o6qD/V5R++vyBVFueZfxA85\nfAn/rzGeuZdwvvV3Q3lW/nmOKT0Z48MEApdbXO6agtvdTwDoHPnXZbEz8x8fHf9c\nVPZAsYhfKciKnUXcaR7CTEh+q8NpPllIt0Ff+64HAQKBgQCsjeLpBb+Vsu96CTX7\nEG3LesGIcsJbi1HfOnB5t3HGwNtqKxq4RhWuQgHiDVi79mz1qSYls8PbWZsh9h9G\nFYaN8Pya8yXJdErAG7oZFpwxvjNljfhiJb/I89m1Ex0tSJJ9vLfo1JqLDxX0ey5i\nQF7UTjlZq1SKzYtAMO3IvNgxnA==\n-----END PRIVATE KEY-----\n",
  "client_email": "mfc-r6-4i1j0uiz25xd33s3n0316ko@saf-d9vz11wywbi4gg0j712476q6sb.iam.gserviceaccount.com",
  "client_id": "105930833438390336235",
  "auth_uri": "https://accounts.google.com/o/oauth2/auth",
  "token_uri": "https://oauth2.googleapis.com/token",
  "auth_provider_x509_cert_url": "https://www.googleapis.com/oauth2/v1/certs",
  "client_x509_cert_url": "https://www.googleapis.com/robot/v1/metadata/x509/mfc-r6-4i1j0uiz25xd33s3n0316ko%40saf-d9vz11wywbi4gg0j712476q6sb.iam.gserviceaccount.com"
}
