{
  "type": "service_account",
  "project_id": "saf-d9vz11wywbi4gg0j712476q6sb",
  "private_key_id": "876ac8ea31952be0285be4c002a94a78497ade79",
  "private_key": "-----BEGIN PRIVATE KEY-----\nMIIEvQIBADANBgkqhkiG9w0BAQEFAASCBKcwggSjAgEAAoIBAQDA1GIyO74u20wF\n6x4JzpO+8Gwma0Hq5eMWRtIpSBzlCj53hM+AuSxDuk/9xKuIwFSbMOYUXNIch6mD\n4bbUrKfcxvdzWR/QnZ4kceB1pFmYYHyEl6IxFcZHdLfZZ81fOEamzXz9V/c+T29C\nq1K/mijhiO+dX6ZIBITUuFp2m9pK5GiYfh35ZQIsfQ2e26SuZo92OWuK1FdLgW7m\nuedYOgFfRxjhLNdHsvFk3OquvkZGAEYOzVh2UesDOKZBI8l4PkXt/9Qf9wLj9Ksq\n5NFP+69LcfU6Qp9U7Tr/Nnict56hjdHlRro68H0HGN0/DKSWg9nj4q2IwhkBjn1q\nuYDX3vBlAgMBAAECggEARwb0FKTE7OWCHzv3mI0rBs3wSEaBxVBgUThM+T/CxOr9\nD3EwLa4Hi/r4s/TZaknN4Ewms6FtE201F4rwmW3vdvci9q4BdgpY0fvQPgUHq4T+\n2Kgx6fqnSnLHtaDymPxVqeNPAtKAE8eWp+wLUuAp5slV2ZX93dEsTF6Lk9zcj3Dl\n8U5qTb0Rqre5DaqJ4z3sprsRQnIZFvt/LPL7rEs66wW54/nBtc7fWFs0aNtbWHMt\nOgp/Zm3pqY5wnPk7CjbSzi7B66gs7utxuAcnvUYQeFqtmd0lFplvwwaVxRF91neh\nd+XtjqfceQFqRa+vFPKXmUJn53vpYYsbrmCEM9iQkQKBgQD6JpS9VfMB9SoNQL9u\nBkuu7VqE2S7EjsV1HdxxpfR5vh6s/nBiSu2p5dhizCy7p1knmnRc/XglN/BZSCL8\nQs4rO65SxdcLk+evUGUlIIbLXMh/yLHH4S1ZpR1CPNrBW0xi8VNh0HNqFOYwYs67\nDFK7BqIQxsoQMjpE1W+Xn2rSWwKBgQDFVqy43moo2yHswVVFp3h/WGN2GObnWiVS\nen5vIQoxlFcoYO/kxEMVHD0cI7oXlLMwzyCtPb8swEt1iBskz3E9IVr2s09tSkcX\nY6F7shazgZx1LvBA6LcIM/sr0NU9kQZt0AcjxHyzlBeTtxqyN+xabCQ4to9ghHQx\nL7wpOi9EPwKBgAQcYDNgVzcABWnkV4ECX3oHcoZeX1NhmUMcc4P2mzbo9e4X3Fbx\nLkite0ncWxvWWzO4aRMiIzhRXATLl6+XlXXGbE317FvHWXZbFt5uU2jCJJVdAfbr\n72fau8lb4KhuzKmPl7QyzcK/hyziYs1WHYHvUPh/m9B6UtTQwR23w/SjAoGALkon\nl/HsOws0CQJMy1r+Y/jK0/ABcfFuYcuEDvNUHc8rJriebS4wgioul4Q16cQiyGc9\nxgV+67Nrv/UeUOMsL+e8G7RyBDPxOyZOweJDevYDSmWpS8CK9qyi1WNWMevr8yRi\nGFzF16X8ZdUEuRtvIMLPOFJyjXRkgQkufQk9/ycCgYEAmTR5p/aoCqmBjSfXAvlU\n3LFYL2v3nejMGVH273FXwcFBuLvSiKvuNDniJNrzntaaAqUzAjYkUvqIfW59DoEv\nKMA33uk+dXXo7DWO/aTwnbaUamqMddrEib/UXhiLUbWQDWD33QNONqv+lVOsC67i\n/z8H48sVudjDiYEIFSe4Vkg=\n-----END PRIVATE KEY-----\n",
  "client_email": "mfc-0datc7v6lfvm3nkga0svq94pux@saf-d9vz11wywbi4gg0j712476q6sb.iam.gserviceaccount.com",
  "client_id": "114634563492005038521",
  "auth_uri": "https://accounts.google.com/o/oauth2/auth",
  "token_uri": "https://oauth2.googleapis.com/token",
  "auth_provider_x509_cert_url": "https://www.googleapis.com/oauth2/v1/certs",
  "client_x509_cert_url": "https://www.googleapis.com/robot/v1/metadata/x509/mfc-0datc7v6lfvm3nkga0svq94pux%40saf-d9vz11wywbi4gg0j712476q6sb.iam.gserviceaccount.com"
}
