{
  "type": "service_account",
  "project_id": "saf-d9vz11wywbi4gg0j712476q6sb",
  "private_key_id": "1e7c57920c830bd5a97056a7d1dde665cc60749d",
  "private_key": "-----BEGIN PRIVATE KEY-----\nMIIEvAIBADANBgkqhkiG9w0BAQEFAASCBKYwggSiAgEAAoIBAQCcwgR8gVEUX5mY\nUtsqVXqXH2lT1uhOJQxw7vwpJgDYRzHiBtQfkv3B1yO+AsmJPGSER67tXqKfqRfc\nEp63sWSWy7o80YwjatZCn/U92eRGFqxDNwkxkst3oJB9cXwE2LwhQbxYrVg62ChN\njYOYl4XWPF2Kerm18j+z7BCPaI1iuWw8rzF0nAZ45TR8r/AdQJggdyoHD8NJAGyA\nHGSiTZ0G8v+fY0QPzJlxruIkoWcYGqyigulpBrXEEvPGJR6aRK5o5fXLE93wzNTy\nNCtf6jTSGPY3Nt8xciTTqsDZaYqm3RFDRMwFd3S+bV/qz2Qx18lNS+5QgwllmTtX\nnjkwcnJbAgMBAAECggEACt/w1LxZ5hptuuIAn1K3wvUkZvMRQZ6TWuBRcP9Ybqid\nvsrve1NEtGZa7eselR0x8fVRHtmCWaYu6A8IoMC3NDjk7iQxXyGhxJR5PHW5vt0C\nzVTrl9tRrzZd3734NxPcFUiMqvA3nzlwrlSjbPoSCFc+vAUgjg1EuxQk3/YGXPNZ\nUAqLMp2Mvp0ELou4oayfB5kU3aX1Ony+HlrT1s9L8/Zbw+BW/qvCFGT2rmbPYR2N\nvyfTbxnXpPwOuwPbrgtI5bHz92ij4r+ICQ2/Zct/FcrP9moA6sF9umaGR6G46P5A\nX20CEPE3qddjdcTDkxi6DbGe0zqB4zhYqeL5G1sYZQKBgQDNDEw8QgM07khIZWRg\nIG8jJJ+Qb9Ih7wOWdYX38Se7XPJA6oFuU+LvKhooaKJ95sSRS5QOR8qrpdPiVx6M\naBsm7kdb5kaMrX8bMV8m7eP1FMVW1TzNlU1LGQgcVuVSPZnDC29IA3n8S8xbR+lP\n+vyieYRDSt4bnQVyByyYPq7YfQKBgQDDtdekBaZleqKe6y8eDl8rmnPwQzZfpO8X\nWh/UvVvksKhi6bE4lJigDSG+BXLjOnY829BGtWQWkl5HOyI8Kg5WEhgL3fRn9f+r\nBi+7Ey5f3+eq6bT2HhPf9QLyF5bbCr4P/SQCFQGExpRx1cJyB5j0S9EZMf7YO7ZH\n74gfrExFtwKBgFTN7kXJw4vDtU+D58S+BVkSj4/sP4tbUC+NQbAvJBCgu2zP0GIx\n/ZyO3Cy0QegyZj/1czGIzbC6L+zfvTmy4O/0Ar1meu054GT9wW3XW72ELq3gGXqp\nckNKAgm+gq/F3G9HrmmpTm1jaAykrEEw/AWynlo6f6wKADON9gqteiD9AoGAQ/C5\nloA7npjvIVoltjppAXsR6oN6ucNJGQM5b6H457AIFKZp1mmHfnBwmUXM92MRLtlk\nOVe5Ejjnr7SwktBKv8hyPpRjxz9X7Sgto7Tp8XCKPQP6xUH1xlaJGj/kJ9BX4LcR\nLAPczhod6FK7uNg4Wf6D7Uo03R4Fjn1x9QTcSYsCgYBJ3G+uQesG01XtI9wQUOb1\nanykOzXJH4nOyKxZelAQfgyQCf+zezCWxPB+Y1OJDKpHFM5X2A/gOplx1huNN72n\nuGN4cm6ZhJvLR+ZqckJCZHvcQ8p4EqTvO7x1EK/AZZfrdX4qZyjYqyjGJajosLiU\nJ4OUeZXbHOAMhg36Y/p91A==\n-----END PRIVATE KEY-----\n",
  "client_email": "mfc-ytu98aa6xz324rm3e7651h-6ru@saf-d9vz11wywbi4gg0j712476q6sb.iam.gserviceaccount.com",
  "client_id": "117991141959785039988",
  "auth_uri": "https://accounts.google.com/o/oauth2/auth",
  "token_uri": "https://oauth2.googleapis.com/token",
  "auth_provider_x509_cert_url": "https://www.googleapis.com/oauth2/v1/certs",
  "client_x509_cert_url": "https://www.googleapis.com/robot/v1/metadata/x509/mfc-ytu98aa6xz324rm3e7651h-6ru%40saf-d9vz11wywbi4gg0j712476q6sb.iam.gserviceaccount.com"
}
