{
  "type": "service_account",
  "project_id": "saf-d9vz11wywbi4gg0j712476q6sb",
  "private_key_id": "22246cc74f16199796dd2dceb4527c6deb2a019d",
  "private_key": "-----BEGIN PRIVATE KEY-----\nMIIEvAIBADANBgkqhkiG9w0BAQEFAASCBKYwggSiAgEAAoIBAQDAkBbl2HC4mZzG\nzcvcg9isnJHwwVHsWgFwNJfu4onv6pDzYAAAtUe78+l1erlF3r9eE7yxf3eUzOdd\nV0sHfEVoyrM9opGQsecbjeN1J/dfKCX34mwf0PPb54fap5NFZ9MgupeYg+zW/COS\nk22SLTk+99f1D3a7Q9dko8Xf7yjaJieOfitxOgnsyYPwDaFgTWD97zMeRlEt44SZ\n82SFZPykI+ws8aQlNi1Nl3ps51VCclA04fsqg02H5Kt66lY6HKPj/rXJprHZWIxe\nikn92DhurPYMt4hiUTYw7JI+sFT33h0ELXIcrr1WHmQBI5xURNihG1GZfARmQJa/\nlDXszPV9AgMBAAECggEAEndO5tRCfQVoIi12lQtEwkrSePzE+y4ncKfugP9S/IGp\nTFmCro6z1hueIgC2lzN09RPd9sSTRl7++fXG0W0yp8m2dhzqqi5RTBRngWLnh0XN\nnE+nkEaEuCwkHE0RI6kA92TFaGAQXI5559LBAXFaScZRPKQyveMT2wgUj/S6nW67\nwV0p9lC5YQcdBUqMgBK54qbLtxPZZSP0FFeAb/0+sy4iv7hRVmnvyd+m62NSuUHN\nCFe/ME8l9i+peNYs2kYJUo/NQ/XshFLA/CROREuF1NwsLv7CO+6kmyOOgzi2PyIf\nkIJVX0vZK9lcUxFjwS01y5eDUajg2Ye0mqG7GBbKcQKBgQD/O8Wmupv+dVNWqMUD\nRicaobyf626GPaxyzD0uCGR+XyvbDyEWcgjE44A0oT2yOi95wNxNW/8BBV6K7BA9\n5ZqXSECYzgManvEObecJlEP04+W+ahJhfYpT2xIHs5tlhuBCITXYVX8qbsSefzzn\nDQx+fnhlGcB204MF5xuNcV0TTQKBgQDBJCKV3O4Jml7deaXYQSSDypFeCU1kOqwG\n4pg2Hz8NXovSBq98WSKLTNtaFEfXXx/TXJ6clZaRJw/cc52Wfn0I/UDs/5UcYtoQ\nE2RVDM6UMwHpnRZchZE58RKDV61XUXLlDezCnkpjVEAczWHC2ZZYiM3MqzpdxBY/\nVZIY4ivy8QKBgH+2T/Naot3TpUzSjCpUOxLnZTP8IUTIrXaP3fkft/FH+/DUBDFw\nBBVI5Qjwuadp2AGrUFDhPJstLZ6D+qiOMCmMvM35H7J9X49hzN6NMufh9T6vYt0n\nbUUCdGYoKBTIRYSxi3jhZw07eeT5M+dFL0BIVkP4e8a5lXEpsC65T+JtAoGAV+5o\npIwB/3M9j12LyMnXovy9c++OQXyIx1WwcKuHHEIYLBWJHXbDSGJEV112W7JeHe9D\n8wwTkaAUE4y7iUGrEUWjooK100eZ+cmqWyJKhqQ2UbKH9LWGqbd8czmenGtjgK73\nRJ+mRFSeH77NrFU9oq8d6vllyDy22DzQF+4YjjECgYAWnh7IYLu9SUPy/botpjCM\nhcBAAQa44sWN7yS4p+IxDOs+tLFzwbDyLVnzrFxHBPu24ncsn2YfSY1PQpm7nP9O\nrwhqq9XFYH9We9MH9dO2eajxhSO069A7V9dI73c8ejl9EHM2C5shBS9FPIuUGtuC\nYNYKfDbAeFVNmGDhqipODw==\n-----END PRIVATE KEY-----\n",
  "client_email": "mfc-j2nzx2h4bf3olrky5mq04ogksp@saf-d9vz11wywbi4gg0j712476q6sb.iam.gserviceaccount.com",
  "client_id": "118076276155960683466",
  "auth_uri": "https://accounts.google.com/o/oauth2/auth",
  "token_uri": "https://oauth2.googleapis.com/token",
  "auth_provider_x509_cert_url": "https://www.googleapis.com/oauth2/v1/certs",
  "client_x509_cert_url": "https://www.googleapis.com/robot/v1/metadata/x509/mfc-j2nzx2h4bf3olrky5mq04ogksp%40saf-d9vz11wywbi4gg0j712476q6sb.iam.gserviceaccount.com"
}
