{
  "type": "service_account",
  "project_id": "saf-d9vz11wywbi4gg0j712476q6sb",
  "private_key_id": "2c0c2d274000890e8bbac13afab3a3108eab9a4b",
  "private_key": "-----BEGIN PRIVATE KEY-----\nMIIEvgIBADANBgkqhkiG9w0BAQEFAASCBKgwggSkAgEAAoIBAQDg6sBH1cnIk9jd\njakfWCt/SbDaEd8L8X3rqlN2zFqG1wZQAtPlXrw9OFRM2f1MwhNis/l22kaJSzgL\nXQxRJbo/oE/vglNmQsqRoEHCTe2bsnGeo1OQAyr1Zs9Ueozmf5NwZoe0GBsam9sv\n+4ZIstKcqIVbLeVCXaC/7b5g3E3rSLs5f19v8535pkrMl05Dbptb2m3SaCq75jml\nIM03o9kV5gaXpSK5z2fMa420aRBxk/8Sc1Z9FHp86Cda8oZOTgJFpkiRu5HRZATi\nCE/ouok5cJGWC71NJj7/8mbC6ivpkOLMutKeL5LPVJ3pIydONBWwhjdJvmPCZpoo\nxf35R/5bAgMBAAECggEACY9mODzJxJZ8NlafegSZEg0De7wcu0460vnnbaTxXXU7\nAHWjpMaVFmkUNDwOfI/B8S/DNR5sDHPqYEPxPRXEcpCRipWt49UySmRXHIzhbP0g\nao94rXtk/Q9aAAuW0klZRALSVoEGeJK9YK8T8yJ0D1KecH9lP5/pMEnzuKbvQkaT\nED0W6XuMPOX43JOTpQkBwh9w5RsCqXZp7VcGnTYBtVeF9Mp74vZwVMkzBKEUzQ6A\n9EmQfommMpdH6h+x/W4VKB8KeMCyMb+JatUuX+1/ZiK7b/1GJBeS73rG1HXXWfLD\nmw102fhz1WwK+FsFpFGGqR+I5Js1RmvGG68d/jnYgQKBgQD7YB18P6j0HbVUVJ4m\niVSYGZBRYtZP+Gw7FQXrULhq5Z71rRyvxTInetvJ70o9uz04XrQEiqYIPenf2ae5\nwt8yz1+G05mIPPjfE5PFdY6iDW5GGQb65bdrxN7MMTqZKLyXYltk10vm8Wcw0ydX\nIDI/xCQz2LhRCvl8xrQYfU48wQKBgQDlDgbFZDP1ooQF8vxZ8IHY0gBQheEXxY14\nx9StAfkJ9LyEKMT6loqB6fFRdqEoWXZbmQSxe2DemoLnhnlxTt1fS71YDBQasYOT\n3hWXD4i4vD9qk2g+T7/JHfC+4MejMR6HWbu8IKWQzII0iAfxsQorc8sdIS9Q56sw\nm/IRWY8WGwKBgCP+Vzp7Qw3xUw2IMD0EXQCKaIe+x0EcKSMsl3RiUoW7607yQrFI\nYy4UAXSgttiv/swbg1tDHxL/CoXq/IE0zhDQcLU1hz5ivJ/0haw4cPvzQF75Jm62\nhdUAk4ZZZjKYCqkChGOkEFI5LrVnBrMLASbwRt7FoV65W4/qQ89d4d4BAoGBALwm\n+3TlzLC3oI9qe9Q9dcvvJQcAElh+lKlkLNU4y6NcAAbnnnbhdkElNG9gbR1B77Fq\nTqqj2HzCm0kn81YaHEoNYymSMmmC67xpL3746awmJkmbcIPO6pGAIKQK7LKmxJcW\nJNpyTs5Uz5frLethLCNpaK0y9zUUOFEjqIKL+LeFAoGBAOnwAk21gld0jbZxQJwL\nd09vPgle5iF+a8Iy013pRFhf/DKTr8BJg/8U4RAhnrLpRucvb24lAcx+mfeXIFLh\nda8wgjurL/50+abR49m0Vsb17dTYowTlp861LT6F/zDLT4okwJDpDu7gVvSm6yZL\nFeorNWw46OEO0dScXwXxEMqo\n-----END PRIVATE KEY-----\n",
  "client_email": "mfc-5wjvdpy4kzdjz5yhu33cpgurks@saf-d9vz11wywbi4gg0j712476q6sb.iam.gserviceaccount.com",
  "client_id": "116025576906165345021",
  "auth_uri": "https://accounts.google.com/o/oauth2/auth",
  "token_uri": "https://oauth2.googleapis.com/token",
  "auth_provider_x509_cert_url": "https://www.googleapis.com/oauth2/v1/certs",
  "client_x509_cert_url": "https://www.googleapis.com/robot/v1/metadata/x509/mfc-5wjvdpy4kzdjz5yhu33cpgurks%40saf-d9vz11wywbi4gg0j712476q6sb.iam.gserviceaccount.com"
}
