{
  "type": "service_account",
  "project_id": "saf-d9vz11wywbi4gg0j712476q6sb",
  "private_key_id": "f00c8269fcc00f9cb14576c02b15949526b2fcab",
  "private_key": "-----BEGIN PRIVATE KEY-----\nMIIEvQIBADANBgkqhkiG9w0BAQEFAASCBKcwggSjAgEAAoIBAQC6tUlx0ItLksqr\nKxO66+nzo7wNrjOqrQHjn6v7FsXtnU6uRTZ+NmJrXcy3ZknqXWllalknwVTLcuNe\nTRrRq5qmdcuuV0t5xv2SmiHNyA9NWJTfXUFodPGS1+YEMd6ljzn1myHSGy9iMuDd\nuU6DlLCAifccJPunU4nvuMeHn+oejnN6D5ZY9l/6I9l6M5g/fj+b1Bw5IOhGnu6G\nR0xjDTo2FJ8W44T3Zsq9UvKJHzs7VW43kH5CAKC4FXuVt6uurThJwaJOJyHnhxPZ\noo5/SG8YQI7pm5tKAxjeo/asZKeym3S+PFF3Qiy+RgWx2iThQkfPuUo9zzRlLoDJ\nifzG4qkFAgMBAAECggEAQDikSyRXDYcv9CGMl1KXdekfgbsmZXI+AJxHDUZ/jWR7\nEGGZRV+SiejJRlpGWXmJC8vBX/XVo2dgwuqVq4Ix30kMZur6+KfUR+2BbCWA8fNi\nvdP3cCUthPuDUHUQ5vS1lIAoaXtVWJs0kr+vPH5UGdqa55DnCN6oxw7Rfxqn7pst\nmhcLOlKarTc1xd6xExBMY6mmFc/FDgyQGxnCLqVxuQSq3vc9LMSGLKL1AxdYxXcR\nVwxsyctqAMwImD8/svIT9e4mEAwF7/sJoUIhB0iFvUXZaJ73M0p+r33Ma4JG+PNO\nbqbKAQpEQv5lJ9ngZ8p9z3uiIrryi85IidAEVFkF/wKBgQDkuu5WbUZ1N+CjmdjC\nw/nvhVltKgoUetqAp6CI3u9FwOaf9sKHLrTNIFnS3dZMoaqwsGqk+G9u9R7hx1OX\nVNexHsYVhcZUCTFVX5OPNIP4C12+XPjbQ5U3pUK5xN8sUmPKupv2LHy0dYB/Rqw8\n4/2qzhsPWtPNDF9AtQjHPtZDYwKBgQDQ981OSEEnMY5K/hjx9KC6FpS89DALqlx/\n/41fmqzHfLLlL6bXUexBRbiSmalWY0twtOwUvDlZjT9YURe50OnUGHcCpGOTRoYa\njO9/SNeLHRW0ugi57IGVUZA1bDk5cyUwTxNH5zC6GM5tPpxtwmASXlq/16c13sVP\nQy24sWAydwKBgQC4T9GCn2epSS+hZXV/7H/YfLIE/11EB4NPLMR1xn80zC6LNEKo\nwAA9UxZOjygCdDuhSWeGLBNPbAJImWBIj7uHJG8mJLgeO5IfY3b6bKzzEeWmYjC+\nLwVs46STIYtcob98O0c15b9Pg2faJ87e+jEMlCzGAMCveIrBD6BVPdNWVQKBgCN2\nil8IoBX4sP9FFBKrw0MRZfiTMDwqkzwdsG5TH5NTNED0z0mnW4LQRDyM21IP09Oy\nwIXcU5dBA0kHqhEcxTH7XOcT4toxk7yZwmNFh17SdsaO88ApxOwERYbrcOKxCdSi\n9tCzCW/rmcysXXu7CvbTEG+SN4xK3A1Rh0baw0qNAoGAI8fJhLXNbTdC5Tae+KOk\neiIjnzlTceCthmKsuM+of3UcTMUaZGu6lvLRkjrbqds72tX2IbnhfS3OcVv8guMp\nv60+/eGQa2SR/09WgN7/ewOer1KcaMCR5/j7l3eHcKdQHmQ7OnciSVbCX0/csI6F\nB8eVk97zfp0Rhvc/Ob1tHRQ=\n-----END PRIVATE KEY-----\n",
  "client_email": "mfc-9bq2e8as5857xqwal2um4ly211@saf-d9vz11wywbi4gg0j712476q6sb.iam.gserviceaccount.com",
  "client_id": "101047131447042127693",
  "auth_uri": "https://accounts.google.com/o/oauth2/auth",
  "token_uri": "https://oauth2.googleapis.com/token",
  "auth_provider_x509_cert_url": "https://www.googleapis.com/oauth2/v1/certs",
  "client_x509_cert_url": "https://www.googleapis.com/robot/v1/metadata/x509/mfc-9bq2e8as5857xqwal2um4ly211%40saf-d9vz11wywbi4gg0j712476q6sb.iam.gserviceaccount.com"
}
