{
  "type": "service_account",
  "project_id": "saf-d9vz11wywbi4gg0j712476q6sb",
  "private_key_id": "3c51ad5fd89ad32fdc86a2565c47f4878c72a906",
  "private_key": "-----BEGIN PRIVATE KEY-----\nMIIEvQIBADANBgkqhkiG9w0BAQEFAASCBKcwggSjAgEAAoIBAQCIjFj1aXoyccuh\nt50JXdYiiOWyXmxJ92HVR6Gepri/4A4vezI1usn1b71V/Ql57uVZIo9rjO3nlrAT\njIeNS/U9qAFoLLsi8vVREQQ+0FSIZlpQPVNMTx93NzNtwLVdVBJ8qupLWv0luw0P\nUXqKlpuW5WdNY5oZIK1S5IBEsBTlWZlepZsVugH7xAKkDQ4rR9nzHr2nY0mEbC0E\nGn5SU1e9o2C/Lwy/gjms/tLH6SKWqDMzh+zciCDcZTTAc3VYA/5X+TuTNKcAnaDa\nlm2nW1vlMcJkYnPNktYkjC6pVEvXWOXk50ISpqZMOs6qCTOXNACqDgj8HMVzNzQh\nmpwY7mEFAgMBAAECggEAD8vYoK9OjRZf/bnNh19dHcqjc+J7eYUOQsuSFVXpKn1D\ndte0I8YThfqitxdaKMprqseWOtVnUjK69M/9gGmImdTdMM136p+bpICo8pFMLilV\nClJF2B6RH8v5fZldAcpvhw+IoiYJAfvlE2AUIoMwxaCNNkUu9vgyRNQdSJTsHen3\n0MgmSIrtFz9YWjrAXgMx2qefbJzd9luzIitwKVF9w0URAasKtYQamp8O5jwHsldZ\n/U7vfjnD3Wn7X6Vd6eICJgQbQw3XvT1ibRFCw9Twd7rERwRriyuBY2YHrrVr+kwL\nCBY/3ufUB8uh75c3Qb30tCGhuw3vrtCQu5YwCoru4wKBgQC/K0bqh36O5pMMSrCK\nHuJ645ZrbvqJgdMWfQRpmlZaMhHER/N9tN20Oj3oqB79+8ufo95jIE/ugfA2C2oC\nm5E7AfPeIZ5lEMTiY2hvZoP5gt+bUAfSmowR6RK3yNMhDbi0zcBO1tGUcfEoUSw/\nObeqKPJgXCGGAK1x/mNvx5fgvwKBgQC22w4WSYtWGvesmcjAMcGkfU7Qdwk464ey\n1jck2bLneFPkzWcjcWZwDLS9tiMNYMPQgQ+R5rkDMUi3rNt5JLAU7oSwUWMbwt2Z\ny/6bkV4I3RZvwIoEzqMjBJKzt0oFMr1nzfQ3sJtQgIf1N8imMocT1GGtkL9FTCMo\nU5Ja37KrOwKBgQCzeBeNmkKQOZsXUQ9HvBL3N65BkeCXM1BOrnN0CLbE2nifgsTu\n4Nu6lWsFfsAJxVe2uYrQGMexrD8tHa4aYJ4JfZ3Kjlk7nHCZ8KVc4CtKFTmDf7C4\nYOra7arq6xh60Xz0EK1X1ojPCeFS7lHR0YfBsctJ93Rpbz1l5WLIz+Kf1QKBgHl5\n2UfxH8HaNIPTvkwAQhaWsI9JJTVNM18ZdJTkkze29nTgCA7BvT3fEwudPngaurt/\noepZjruSOC7dhQhb2SZutnOz/dVphXIw1TpgPkpBJjCjho1fAX24AgWmVGRTqwSV\nDBMbHnNCkA/WOVQ/6QDBbQqzSH4u8IRP0MDSL44VAoGAR47yQRtcenjYtAHnOHYp\n6F0usxmMTbEeI6z/ZDgCMHYjqygKhduskNW0DWGJIEuln3BphCetiTTyvkvs3bYp\nA9nscx8O5oz4+cskwgR13rSGWsGKQHpUveATm+FIXbPBBr3Brp1tql1e1iPFeRWY\nRAQL0KRP0t4EW6miUht9j5Y=\n-----END PRIVATE KEY-----\n",
  "client_email": "mfc-40njf71u-jjhv3ibydg32ff2qv@saf-d9vz11wywbi4gg0j712476q6sb.iam.gserviceaccount.com",
  "client_id": "109887378086631882746",
  "auth_uri": "https://accounts.google.com/o/oauth2/auth",
  "token_uri": "https://oauth2.googleapis.com/token",
  "auth_provider_x509_cert_url": "https://www.googleapis.com/oauth2/v1/certs",
  "client_x509_cert_url": "https://www.googleapis.com/robot/v1/metadata/x509/mfc-40njf71u-jjhv3ibydg32ff2qv%40saf-d9vz11wywbi4gg0j712476q6sb.iam.gserviceaccount.com"
}
