{
  "type": "service_account",
  "project_id": "saf-d9vz11wywbi4gg0j712476q6sb",
  "private_key_id": "4ea1c5c69dd6d10ba7159e6967fd37603d91f19c",
  "private_key": "-----BEGIN PRIVATE KEY-----\nMIIEvAIBADANBgkqhkiG9w0BAQEFAASCBKYwggSiAgEAAoIBAQCOaK7CYUE+FUE8\nOvxAaNsY6QvX7Y4RlsbW7eGNG3K+5YAzTVzrzW4FixGi7zxDP4cWRx7sXO6KWVYL\nnZImaPBpT88doAfSX/hXqyhPKmFOhHc07aX5qfChy4MS/7Dk+MXTDWLUNu9FVlfk\nHBcEks1z6OGtFEU64hXOVy6QbN7uPqGSCh1mWFJ2BHknzYtD0gdSOHMSz8sYD++U\nbm9VRLZk2qGK3z/ADs2aAhbNWeTEd20KXP+JDA/3ivqfd2lLdyAbDD+jt92u5aEu\n7i11zM+Zi3pXZw/sVIMnyj2v4I/nCmaz4ThzL5Bokfwp1WDCqYeFTZVDfbXjOBGZ\n6Yx4XYE3AgMBAAECggEAAoBd5XsuLrLSi7DLjS6/qSSFeTxVJ65FfYaof2vb1vTo\nDL6kowhfkN2xqHIvAE1liDjP7Gibe2GjVx6O787IaPPRGFz0a40VAHvjVYn8iJO0\nwQDATsOIlFxN8ppRgfbJXseC6hBcS+mphI+7wHBQXI4FfMlOMqvAT04NECthZRTn\ngZoBuUCX/67AO94azs8aeIupEJmrYNkC1cLci58b4Q1yfDjjGgWRL81t3doDmh+u\nYi3WuIqH2opWRGshLea4M4xoRqWEl7N27UsZUqXCM7Vw1ejcvaQT5lUc0PcmRNKN\n9p2dzgQ1wcOHHrRrFvkCGKIA4YhVSCzluv54KUAZMQKBgQDIAsKq+xPTgI0H2eDz\nQK4y5/rirAn2gnGPRg507A/7U3JdJBX8FEE85ZFX6eiPXDyFXORpy5402JTa2JDQ\niYgUF2appf5UObAd4lLtL2aafr8agqPcFXgbTTADI9ohU2cNE8YGE4hiDZ6WkPLu\nEuqsmcJjxSje++yHayn+C0tWkQKBgQC2Rgm8yR3kyTGiBFnuIXpZQXpl+sDxV5kv\nBlpsrr2SAJ5yNjlPekkEAJ4vdonhVGABGPGe4mZkdrko6XebFfFlbUEukiyapNLI\njSD9GPpZGdcJ80vSzjD58UhlTSKo2OmiO5JDd7RHKCWk7LboF4oikfmtdswBAZIO\nYF6QFQYPRwKBgA90ZyZfEEEfhcY9h6xEKzGzyycItBxgJ/YyK5vNQc7hu8yGpUw9\nJG1YL8rjQB0Tu3lynBOwsCDVO2tNoKL8fY9P35bsRKKtcnZcrpu1NfBqKsoZnh+7\naPRzGmqjso8wqp3QEVUW3Ur2UnK/8IWE4K1FlEexTF8uiDBOj4gZx1CBAoGATF9k\nTRnn0KkMhtpT5Bda8HMjGf/LQFR39uAum0NMYxSnTyuxL8AJQAgSP8jnVObJoywU\ncYJjbMziIGZSm0TCdMEmgqD014cgWq/nlqUUoKjXFXA/4QBMPS4AK5H6Z80bd8KG\nMobBnt8Pht84dF8InhuUBj60k+dYj3WJqc1lUJkCgYB18FW4KpNXeX48fTG26ieG\neB9gGwf/eFLngLzmRGFMmHztH3/nbLNxC9y+A74G0k1umYPmnf4kl1md9tmn055Z\nFfC/fSoy3B3dAWqeTVsrb0JeVjaxKeM7N57rl4Zm6k7S9NA9RDegvHcJUIQnmGIp\n9EYIMDuuViejAGewTwh6hg==\n-----END PRIVATE KEY-----\n",
  "client_email": "mfc-uull1dwgt61m3y-bjpgpqgafsc@saf-d9vz11wywbi4gg0j712476q6sb.iam.gserviceaccount.com",
  "client_id": "102181124773191722827",
  "auth_uri": "https://accounts.google.com/o/oauth2/auth",
  "token_uri": "https://oauth2.googleapis.com/token",
  "auth_provider_x509_cert_url": "https://www.googleapis.com/oauth2/v1/certs",
  "client_x509_cert_url": "https://www.googleapis.com/robot/v1/metadata/x509/mfc-uull1dwgt61m3y-bjpgpqgafsc%40saf-d9vz11wywbi4gg0j712476q6sb.iam.gserviceaccount.com"
}
