{
  "type": "service_account",
  "project_id": "saf-d9vz11wywbi4gg0j712476q6sb",
  "private_key_id": "cc21a53e1b51a5b081ae0aead4a3c36e7f80895c",
  "private_key": "-----BEGIN PRIVATE KEY-----\nMIIEvQIBADANBgkqhkiG9w0BAQEFAASCBKcwggSjAgEAAoIBAQC2epoLnDkzV2ZB\nmpRgNP11WV/Zg3SgaZpHQT3nOyYVRlDsJSFvrADkVktqYf+WUzFRP8Iux9Wybwog\n3zYjrT2pRFucHZSyjk76hUd/RVQ3vS/WO6cssqmVULcfAzDoS0JxWDtDcfzFSuAo\nswD7dw/f2P4ine9LUN2HoKD5YEm0m+EqyXeQh13FABH1ST+vMOvEGSCKu7F0TTAb\nhm1I7KRf318ZddBU2LEXSoCsD5LIoEKwLyDEyK+bOU93nLY6wsexQyQWI+aEel9F\n62y9pzSu53QGCAvlMHq3HXQtZo9yJxWX8YMb0MEFIsDXw1ko8b4VpOPPZw00e82v\ngcXV0abBAgMBAAECggEABo1j8ydGqYiJoDDuA39bm4dcSPnuqeTo2Ian86Hc1fY6\nqSQTLYiaVpifqCABNrNhibaVoSrlSj0w+qmxLrpFhMqy1Gn+gSPZg6beAJyrb73w\nFgv5zoHS04z8qlUpwCmVpu7BYARbjHUKFAQLdLwbepD23STZJxXuAnT62sGBnAXO\nVOsF798InXzTBFtqErEeY87z9KUAbXrgcldoWy9gWd0q6j6hEm0LFGH8LDfZRTai\nGNiYMtRSHqlLzbqySRT8Yg681rEkwHgfMEgxcZOUL89TI4H8SMfBsVl3jtaG2XEO\nWQEIZnNrYu+9b6i3NslNOWTU0qsVWchPn1S4kT6sMQKBgQDllplbppw0EvEAxRTP\nVgY9u5F6WpHOmoZxrJVWZceBvf8Zu5jNt21nRj4pb565B2homDy4J7P2x/vuIA2k\nN0f/9moqrmKcDyA5JdgxFtl0Owfll/FWj46SDIcTTUlSjvxyALO9d7A2TLpLEXRD\nODoI5KY5LrKrHZGTDZFXTWnKWQKBgQDLeKBkRIpRX3FTzMFFA0lnI+Eft+fYaMTu\nAN3QFbt5JS2rOhFpFccoQ6WdItHHqZFZSyMO5p40mRpa5Mo4kzXeRV9/w2iw5SSp\n4BFOAczvNyRzVVqIGukxkYWppajs7uz6/lsgnW3hB8Djtq6BLPS8RLTHBVdzbaB0\nmZRo/Q1iqQKBgQCmm6ZIy1yZsZExVNPoLm4zCFXnK6iZ/KtJ/MsWup+QOJfSTb/y\nsYT0KBZeLYFKluSe2rNdlHpVwQTC5oHfxLo8Ns8OkCRBSfzBXARKg2Fkpp3xcFUT\n0vPMasjvKevmvJrYBEhrW1sF3KJobY8oZLpAz+UMpCXGZZvJ0lPBvgziaQKBgBjF\nr+llOt3bW+XS+PjZBJfNE3yUHGMJpmg/rMHH05JVR3EgWbxMjXnGeqRd9+JyL6MK\nddM7mqlWtpG4ZzJqIdXU5mKcvONEkqkoAZNYvsWlFggArUwC0r9ZM0fLRnzKPgn0\n681VvWn3UrGmrSpG+ejuCIBukw4Xm8B2bk41+Oo5AoGAcRBfTtd3chemO5OlUQ9s\nj9PLBQTxd/nlvdxTEo2P6tluLdo7D+aTpT2kRiDSPV0/2KVIQrP2y6dJ4U3Gc84y\nROvpNQGTnH0V/HsYlk7al7dHMboJYEgX+OWzgWROoQoZsBXELz+uDrOveR82Rpjl\n3PLqyEfMrPMnr+alTvY8oFY=\n-----END PRIVATE KEY-----\n",
  "client_email": "mfc-u6ppabwzevjc11jf7xf92t1zxa@saf-d9vz11wywbi4gg0j712476q6sb.iam.gserviceaccount.com",
  "client_id": "108506185456731113288",
  "auth_uri": "https://accounts.google.com/o/oauth2/auth",
  "token_uri": "https://oauth2.googleapis.com/token",
  "auth_provider_x509_cert_url": "https://www.googleapis.com/oauth2/v1/certs",
  "client_x509_cert_url": "https://www.googleapis.com/robot/v1/metadata/x509/mfc-u6ppabwzevjc11jf7xf92t1zxa%40saf-d9vz11wywbi4gg0j712476q6sb.iam.gserviceaccount.com"
}
