{
  "type": "service_account",
  "project_id": "saf-d9vz11wywbi4gg0j712476q6sb",
  "private_key_id": "c0c3d4d07f16997b08c4d2251e7693c47fda6af1",
  "private_key": "-----BEGIN PRIVATE KEY-----\nMIIEvgIBADANBgkqhkiG9w0BAQEFAASCBKgwggSkAgEAAoIBAQDZemeVoCsnc8h0\nkTG41LhqYV/M43QJmF/Xu2eyoU32aVaVYH/hXOEWlhmm41hBlnJedBUTC6BRmlpJ\neZwU3ZlToRgjW07lzOPVjLciAUJHhGRLEynQSfvo5QLiFs1VOA/Tfbd5Bn7uIsAq\nT4c8WOMFNSJgseotW06YuxwQe+NqG/UcKW94XMX8MW9cAVHMYuulJmUKTDT1cFEt\n+bFg1rwR6BFTostGV2fy9mHfMS+XHKUE16SebgBFhSpsFQH5Br/ltLln/caJc4g8\nVoqoKiseMOGuo29QQ2Sy+MLJqL2aI+WjHUg91rpCBUd27mojWJ/jPkLNjPDrZrcj\njBWzafWLAgMBAAECggEAE8KyVcnzZzF3Ndbu3dH/nbQ8/a4ZyuNnAKr9Evc4JnB6\nLGF+d842Kj9iPk6VpC6qNAM32lP/RwWPjZyN/jwHugMUYTtjMbCKb8rKOxNCiqKw\nxZI3WunWCK/XsWO2rYxwrQaqcfCRU6GhtKvRkxNVMWcbZA4rw9+c28t96HuGoDXr\net09euBiNPpFOSSLvGnEvZiRdX1zrpkUf5f2bUqycSQ134+ENhT7jjNwlQxhpqqO\nlYVKIKH1KEJmQ0da+peo+myutS010fyJGnrxLuZ8vsftzIpC76p/DaBfYa4y9b1s\nxob3ZZrENDKh9hRxWomMd2W5ElR0MMvh4KrZnspL5QKBgQD7LqPUvAAXGeMor5VR\nNaoEO6i3KBVHMWzk5ZJBy1FQlkpN+DTQBtCmsZB78Uh3CvSt7s6pwjVIHwMbls3S\nWNg02A0UJkKBtT7cDZS0noiYFfo4Tnu4l8qq4ig2zdbVnqNJ6CiiZDRbNyfv7H9m\n+OkpAqN0XqK8bRlcJ4R/oTg31QKBgQDdpkU2MNmfqDZoZzP/krWsTmakKH5BsA/Q\neoLKiI3kqkS8nD/XVwFMy0Z3neQw8JKOVj8bAYiRiSsWb0r48b4kXDhJr7RGohtV\nRu/vpvuL+FthCeKmn7R1ZgXVOswYsWu1C+VeOarkPgIzBL7BSon9PRjrcw4fX9cl\naMcyJgCH3wKBgQDcFHt7k9XIZ+g+58k+xHRZDSTAhiBOpqGw1O0XNNvkbipgso8j\njjUXORFNZ5WEqFbGZy0wVHd236VLcRCZszqM4phjBTrUh0eyazvWHem0x9zbpPiG\nPolWvJ1bl3Ma7MpJoV6pGn89RNB7SY4/XOx+AE/TUG/qBPVpZz6SzWGCmQKBgQCg\ncBA9L5L3HD11yO48mqdiN8XYIW9ygMyRrXwqujlrQUxL8hXL+7B3M9SoFOPuANU0\nrn0zQSLnpZBIxvpPxDxL+WzM+Z/WWNTMH3Lh187Q/E64qP0kewmWyOiD9fFyFkrO\nW/QFBl0KpU/WOiMRqrDDW4xEMZ4RW8BR1cwKIrPTpQKBgByYD5acG+C6Z1VlpfX8\nz5gaeegfisdMT+ETNy6DA5qMSLloQdbLZhQ39WNUU2+DhxBIMRgrdTLD9Wn0S0pG\n5h/o2hIV8lr2fTeJsWlll7IOfrn5N5+bKpH3Kc0nmVTDQT69VJhEmi48kZtDFsoQ\nOw2/Z+psEdmMSafE/6g7M8nD\n-----END PRIVATE KEY-----\n",
  "client_email": "mfc-xv1xvbenro9q26fspfo1ykwuaj@saf-d9vz11wywbi4gg0j712476q6sb.iam.gserviceaccount.com",
  "client_id": "117013312335711642777",
  "auth_uri": "https://accounts.google.com/o/oauth2/auth",
  "token_uri": "https://oauth2.googleapis.com/token",
  "auth_provider_x509_cert_url": "https://www.googleapis.com/oauth2/v1/certs",
  "client_x509_cert_url": "https://www.googleapis.com/robot/v1/metadata/x509/mfc-xv1xvbenro9q26fspfo1ykwuaj%40saf-d9vz11wywbi4gg0j712476q6sb.iam.gserviceaccount.com"
}
