{
  "type": "service_account",
  "project_id": "saf-d9vz11wywbi4gg0j712476q6sb",
  "private_key_id": "5a571bbfa4fa60b5e8cfa32b3e379bb161181b33",
  "private_key": "-----BEGIN PRIVATE KEY-----\nMIIEvAIBADANBgkqhkiG9w0BAQEFAASCBKYwggSiAgEAAoIBAQCPKxn49tAK86aW\ni5AVEcM5Q5X6UPcGS0BFAwNUFjcNVZ6tk8k2fSIhq/+sam3yG/mAfGOH4Ca4ZJoZ\nE+M8kHar7D3iNHWcslSE+SuTfc/Huya7X53L9zXCsqJqDu7IduJw1JAiE4SsG4Yi\n6z5xD18Am2T2H6UsuBUX0jYjzjBVVRjNt0vH+3qD2D/fWMfKDfaQo0eyAwDYIX/9\n4SE5HWqp9P4Y+dK0JeJrVyFOVFoe1IjHjX6+dgKHG1mfuryJIs0Q1aEWhvwhH8K/\nrYFRkhJsCkpeng0N/0TTcDwZ+R9BTJDNPMggIkw3rsqWvAut14yNu8RCBn3qs67c\n4ZCN7iYxAgMBAAECggEABK9zpHr3U1uKLgfCkM+7ctv6YKcdc8y5GddN9SMUiXtK\nZnQPJdIjqXuNo+759XyNjXM9kqHMUNL66WRNHdQutvD+oluE7WUa4lXWjj6T6+EZ\nhp69rhBf2UFyrwr88/1vI+rSuLrFPVGSnI9+/RY7lOxIFpO4/gGOBWLGjUE0iUnj\ndWhpEZnmFloLr65xfEKpj4wfrC7hMf57OQVXKayb9hluDWgi3UKes+cE8dr6PMHA\n901zTSnLo4lrLyo+AhLT5MVgGwO43PhGccFS2t6wqftliW9sxAJ1LyxrLNdcJNwW\nvBnuIVsWyF1xh7HSu6SgHgEn2qdQhr8FXNLiuKVxXQKBgQDA4qvRQNUuaKJbPJd2\nO2Wq1Mm5oOBgVJNUP37G40U07wmmA8MJCH99zJP8qp1RLRtESNu6bEO1aZfX0+IX\nZW2ssa47Fq5zh6IuvVaE4BH4JbQJf9j7uOHXPSoTROxORwJAa7YnWl9rAqSOPNUF\npk+bU+J6NMq1xCfdtJ9BsTVPPwKBgQC+A87GFMsrkh3e6ZzhdfjbwzwX4KLGLiiw\nc5WkcVMTEjDcD6Xds7+YerIelJQvIZnsG+T6y5LfotTj/HRPKa6NZR3FhSomgmk8\n0eTpWWd9mDlEQkRtUfi/jTJzNyBacMljOvkQ+ev52OFtYNYQL4bbXGrRoJUzV3Hg\nX8+rxEKejwKBgF70d8840nnZSuwNZSbwULmLrY8zsqHZoPndlETHB3/qmV5gBbjB\ntTmx57yAJZgb04uHLpyUxbReOkEm7uvDo/1bL0GphdIcGGxYC2q4gEAgF4SBqskp\nGA0E8FyyFn7mmCYsoGy5IbYlg+r96YSxfgkif6DXsl9PJK0RSUFmwq6zAoGAR+mj\nAP5vog7LtUiOshl21J1ACf1fPUfM6HLmKHUnLqmMykw1xwE3Otr8vGwY5Pl/iodI\nEs6myHKUxbAOyMMKp8KkENQEDsz+TSFW1CWc8ECDM90sjn8eeEhU1pv/Z5sV7LMt\n/gnIECfPsRicC0YhcLW6S5nNvb+TfopkSyqc1+sCgYBb3AtDPHAq4OGtP66u+Hcr\nWnNuhT3AU1emKHTaxb0UuS/xPt3jhx7F5yeOSTzBBQBecrXfyVIAk9AakhriitLt\nOp6GAZ7I5Oueb1kzh6rS7x3qy4RI3dTLTD41wQQKyzbjn4KJBO+W7nfC/kE/ImUe\n1SARElTgGq8eVXlKaI12Tw==\n-----END PRIVATE KEY-----\n",
  "client_email": "mfc-1bjesv422lsqx7oliv0sprcsvb@saf-d9vz11wywbi4gg0j712476q6sb.iam.gserviceaccount.com",
  "client_id": "104443566791916361450",
  "auth_uri": "https://accounts.google.com/o/oauth2/auth",
  "token_uri": "https://oauth2.googleapis.com/token",
  "auth_provider_x509_cert_url": "https://www.googleapis.com/oauth2/v1/certs",
  "client_x509_cert_url": "https://www.googleapis.com/robot/v1/metadata/x509/mfc-1bjesv422lsqx7oliv0sprcsvb%40saf-d9vz11wywbi4gg0j712476q6sb.iam.gserviceaccount.com"
}
