{
  "type": "service_account",
  "project_id": "saf-d9vz11wywbi4gg0j712476q6sb",
  "private_key_id": "7dd9fb82d2d130df6e0906295245a397476361ce",
  "private_key": "-----BEGIN PRIVATE KEY-----\nMIIEvQIBADANBgkqhkiG9w0BAQEFAASCBKcwggSjAgEAAoIBAQCh+7AiKSop6Z44\nDEu0oSw/LLpV5aIDZWKxxrmIMMhPRD49Er2nLOTbF0Zeznk7GBtASPANOqGRiaww\nl5E+NgSLOS9buV7Aj8l8Gl5qabK1EsN9fMQn8lCoZbNTKSs7UgHvhmKXFh/c0r2e\ncPuoTZNLCvrNQNDqFTlx9BcpHGENNP3hMTI3lSTgEIR0/GuOAE6/Nqwp3nK1xrue\nDCSZZAr+sVRdskaoHzhtO2zc6iZmqXCSwskkcsTv8khKErc1dQBOKgs0aEtwDrq6\nxNEj5+WevXb5v9s3ABwyE2Uedl/NcqgKa1HA7zj2j5li0G/v1UaVt/VYKi48lGSx\nJ95LoPljAgMBAAECggEAUN2TDULKs1jXLXjp9Hd/3NwJ/CbjDln3fvPMHLLp1TSm\n85tfBc3yRHQmo97lA7zhoeKnwJr0HPGDflC0aD/UXeLDA0IUDQLbXfLWDr7Mwfvn\nj0aRsLWWUbNP5mTHmdozcC4BGxcm+flVQ3t5DwkHTu/gzEYe5bWJ05s9Ur9BrjLq\nVzaM2qZtfHCccab6biOgJf1qst70qkMOddaeVToe+mQvQ46yy1635fH3RggzuMY+\noDJsOThB5OjeLD8jGjwPGknpSKpQyLZHMr/Rom24RXGbdz2reiXFeAKYzbPsVAhM\niCLymQUPLnlOOmP761uYKW1QDsGavkEwCC8pmCRWOQKBgQDS40W12yZ1aGh55VYI\nEN3yJGLtSspXEax8tzksTlJllW4GBx+6frsSlXUCNT8a+pCspYEj/UNwDOVYa3nX\n4fFyfC7XKHZKwd7wYQA0aynQdGWvbC8UIiBnixozVLpDuk78RYsfOYoRimbm4CKp\npoj2z23vhNa7SezRue0MrV0+CQKBgQDEokeMjGsNwx+e+Kz67KU+qsjpODX27S6i\ngFRgAUuh4NgowUK29iPm9aN4bhtiPGUDNVb8u3PdsrFVkH1vzcV3Jld1TIlJd9k6\nYOlld3Kc/ZpfAZ9LX26fzi+ImWKUsNCf4FAQMeodeitAHSdLnDb/U4HJ24dcbg1l\nkJLt0siXCwKBgBXJu2MNkEyjC+BELH5K19NzpPDlQEB8p/h+qZ6FPQgXxzVCOSn4\ne/VwkZU30RxFdPsRYmVIflYuTueyuvTt+Bce82vxVz9kBleJfg7sX3aVAAh+weJv\noC9ydLOG9nOW5SA1QylntXcYeIcz8wDaHt55Ed+kNtdEzP3iGrarlq2ZAoGAQ94v\nC9e7a3iZhWkXa1QahNK1namFFsEug2//r1NDI5BTi12JBVVXdvP5hCucz/9AbicO\n6xRYHYD7rCi+4sQHD+Tv8tCD4hO3qmqgpCDiMkVl7rzEmmNJ72ZfCarHV8Lffw8R\nE0XnJF1yaCKn2XUFloLgHSfkRIbHoPKRg/xot5kCgYEAhCi5yzw5Z+eUdQkEEgwp\nTbupM+ZLgLk2dQq+R8964a3jvgUlypz9NYSbaeox18yU34MDja1i/VysAOCCgWiA\nSW62vFxXmqQ4RUwjOepQZVa7QZ31HDbUM8/Dyg9GinV9bN4LxC7mWlcGO+zwf0gY\nXSBGyWOXuVKM7ULz8m/mr00=\n-----END PRIVATE KEY-----\n",
  "client_email": "mfc-6bzfwcwbtxlc9ykrljvlmaas1s@saf-d9vz11wywbi4gg0j712476q6sb.iam.gserviceaccount.com",
  "client_id": "111537786718392809612",
  "auth_uri": "https://accounts.google.com/o/oauth2/auth",
  "token_uri": "https://oauth2.googleapis.com/token",
  "auth_provider_x509_cert_url": "https://www.googleapis.com/oauth2/v1/certs",
  "client_x509_cert_url": "https://www.googleapis.com/robot/v1/metadata/x509/mfc-6bzfwcwbtxlc9ykrljvlmaas1s%40saf-d9vz11wywbi4gg0j712476q6sb.iam.gserviceaccount.com"
}
