{
  "type": "service_account",
  "project_id": "saf-d9vz11wywbi4gg0j712476q6sb",
  "private_key_id": "2f85831960af8b415bcf1ca26b6bc0228c6ea322",
  "private_key": "-----BEGIN PRIVATE KEY-----\nMIIEvgIBADANBgkqhkiG9w0BAQEFAASCBKgwggSkAgEAAoIBAQCPCeP5nVHIbexj\n0kQKPYxdsWQwPb4Q/44pojvfY6TmzSFZQbpJhriFHCu9i75CXx0hxxDH6Lu64UHA\nRAcLGJu9e+qFolpuaEl6OWKK+GbDHmgxkGl01JnTOykawjmOVqtiejje+AUm4/7T\nhKJnsa0YoOSR8g51b+cIT+tF9Z/uOA/n+B+mN5Iz575bDNknqhUFOOp+Ja/8khtS\nUso5p+0S/Jys5M5Z9tJlHpszE0r1/erHY8AybSOq8zHqvOsmBCKyY9RwPjWRVWLA\naqrygbvqxdelLE0J6k3obNjPCG0zlh55qYjUw0kD2wYeRb9cvm4QPExaHf38K0y6\naYIYqJLnAgMBAAECggEAApw/mNKSJ4I6CihQLY+p/Bu8pFS8HztKsN/RD+aVn9Cm\nhyZ369eVjnhRJAhk1Hk/4tnrKHrK0kJCHOwg5MbyMKcORJoN5G3qyVw6vCaEWZM4\ne48THZqzo/M0cNSSkFJslkN8vjTwgyEuCVYmUJYhfo2RHki4ktQT90beGEy/Om2s\nf8H5kj4GWqitOKxx73vtgYUQY6GljTFcl23hxFr/GLR1a8SdeLfHiw0Q9GIlCbQe\nEi0syi7RfGDfK/OA5g/DdCUFVTgogCQTJcGGjqOwPVHPwWT9DSE/5nk2XHnAiHxo\ncbYNlq2Xsf9FXnYUM63Jlk6RkKXQM1xHagZpSsuCIQKBgQDFc38BCjGWgVEnAZ+u\nxKlcGqoHjyRrb6+81fXPW10wjha1sj7ICRJe7A37a+5cSeoj1lG5svD8yczi+EXq\n21ba6MGwoR04MmW/cQTR8B/ohLFmMurvGNoO11pQY1nno6+lpv8AKXGKFyutSm42\nFJQtbpNcDIPA/ATT9jIqsgsDgwKBgQC5c/GOuThe3nYU63pOXJxWJRXBZLkYRujW\nLsbkIOk/lGeWcu9kNhUypysqK4LPBpX3QNtzXwijMtbHfk6UE705QIq04aVUo07T\nuJCXDCz7bH2GKi0msTaN5SsvBA8OErILoi9kjYctdeVsJidypRBLveF5dfnzHgOh\nXsubozvBzQKBgFxmcR++cng5Kg3z75MsywikHb+N2ABC8t2Ozwpreg+33p7GvCSG\nQkeTdfObjZ84o86DhBk/yRCzKyNoBegjHuEwnTuYGgFrbDwLmrLYCUaZmh72YwTi\n/2CEnOoTpEYHTrJZlOmxe0WhFDpzI2JBfRpJrcIcxSdxiJzckJt0WD0bAoGBAI5k\nh8SeUroE9YV6iJ5CXYeHUfz76WLKj1xk7jGbU3yN5juOZGD9ZalO0cW/QuDSnbML\nCXS8M1WbY24pfQwVW+TpuZbI6rjh61SFEf/oSWGDG544JBLhXpH0tAOVijm0ASEN\nlnYOdQxiyZUQdpmAQ9LkKIuqGhChqwfsUUlfPDLBAoGBALHvr/sbXNsOl1eiK0Qf\n6hw+y2ZMd8VM24Vlk1RJsw/+cjBVIhxQ1RAf3Dv+yw5yqge7lUX5KftGPnU1HlyZ\nJuN3SG+ObFBcOn1XkjwnsOYhYCNuXsZfMeylim3ribQLfmf9efkcD0juJLO6b0IP\n6IGDFulxv07zpcBUXHgWumJV\n-----END PRIVATE KEY-----\n",
  "client_email": "mfc-cmtxrhzcvrx0pvjef2jtnooj29@saf-d9vz11wywbi4gg0j712476q6sb.iam.gserviceaccount.com",
  "client_id": "101480264288962984463",
  "auth_uri": "https://accounts.google.com/o/oauth2/auth",
  "token_uri": "https://oauth2.googleapis.com/token",
  "auth_provider_x509_cert_url": "https://www.googleapis.com/oauth2/v1/certs",
  "client_x509_cert_url": "https://www.googleapis.com/robot/v1/metadata/x509/mfc-cmtxrhzcvrx0pvjef2jtnooj29%40saf-d9vz11wywbi4gg0j712476q6sb.iam.gserviceaccount.com"
}
