{
  "type": "service_account",
  "project_id": "saf-d9vz11wywbi4gg0j712476q6sb",
  "private_key_id": "74306491d662a6a83f55be51cc57d55c5dad8e39",
  "private_key": "-----BEGIN PRIVATE KEY-----\nMIIEvAIBADANBgkqhkiG9w0BAQEFAASCBKYwggSiAgEAAoIBAQCZE2jSVUJB2hJ7\nSayyDG9S8zV353SgZb9mgLG6s5tqmV/gb0JBYgXfQmjEOZrFhSZF7oOg6XrpodqZ\n98S5unTxNFCm11FVjlCLtDWcGZRHnEDiGtG5aMLSXAvOiAYzBZ6kAIN5v4dsyq/r\novtk05XLoXBacuERgoo/6Oxyshgkrxx8EHghyjBMaF6M00RBIrRvI1DR+UeBMc4O\nCjYf8TqQxQyOO5qfYoIHjgAZy/ypstl9dIQvkTBxU5OCB6CaFBoHpRrO3wgmS0id\nt7NM5q+r18wi2+aDsdo6jsSptufNqJp4pIxr39gspTB+jA0SNXgqLzgPZ5XCoh2n\nJ1kL7Q/xAgMBAAECggEACT5cTpM6cIqQIiTFSm0ozcwE9wwhhUwPnkt4MAuHf4zq\ndr2RNSyLqTsz42GNII9VS9TG2xEuTGxrLHADT6ncRPKBSknnTfDNmVoVAKukwhxD\n6MNw1a7nUNehGOQq56rXtRSY2+G+dknZDLQnVSPXwFer1rJoN+v3mDtjB9wMTC60\n8kuJMbgS0LKDCKbIsWsws3CZw12M5ynFLH0Uv9/ZiFB6q9TzzWbA6ei8lMSGAK0U\nlmG6Xsg8NssYBaL0NF2wjaDWjZA9k3MckPnvWm40WrswiyoXOg2/SJIbfAQ0qd5F\n1sJZLtyzjumLKfLmNyrjfIqSIO12NhnmE5Qu0Om5vwKBgQDKNJRePD7orwt+NJ/b\nO7pTvH1kxgCsuAmqaOpM/9ROyG5p1g6K3Pq9L7Ys7U71q+Tc1PSQ/dSH57+W439J\nrfsbRmOKMxdmgnr4H6z6PJvpbJH9b3rZuJ91GQz2at1SQtPtqJZVzBO4y4q22iAP\nXsrHV3XJC8P7ua5XggPp4oTHkwKBgQDBzM5y49AB/l9iWv6Bjo1nSZvZnPKJ/FAw\n9DA6kdOrLoLh9qftKUEpnYzSEuXV6cdOnpUN2ESAfn8jF+M0ALUXQDZD5U9u8fGg\nmhVwjtEUQ6Lf6r4kXMgcuaidTTK+c8YbZMJvmaCPknQHoaLeGMZoR+bVSPIXO7E7\nS5QHfoA06wKBgGxGTXBMiE8mdFwHJ9ZIHFT8aJTOpcvW3G4gsd27W9832k/X7H+V\nJrqpUr6p8A8DFZDeg3skQGrpwKC2fxFgFUccoO5+vzgIBHra01BHpiEPHvl7eWge\nQVx9poBI5uxGlp77GE0m8ySP8V5KXMJ+Os0VWx/lqfMgEWgQWbIitoD7AoGAN7rL\ni2JTiJ87kq8UDPGPXCpgtN1bKa7y6IDv9YfF1K4VWSFy/NImOO9jdW2VxkPp2oPj\n3Q1Z9ZFqwg62eVfSu5Lth+zDQOY2U7a7f5iyKx+gEMASWaaMrSX+hO2UMAxe5bW9\n7BXDhEXbM+6ZRUDenVI/4QmPBHtX5fM/6D/KYm0CgYBehS2gItd1lzlsaremuQ3P\n9xxmdChmUZ3i6mrrwzDmxNTK9uHuygRATCgfOjfoYFdQWHM3RxLbEqHv/Dbwq8yo\nAJH6JYi5YVAaN9vu5cPaahKdz6/3ev3k6DiVdBSJhErncr5+KQ32Wc3+fxhGHpPD\nX42D8fDrvSD8B2ihXE+isw==\n-----END PRIVATE KEY-----\n",
  "client_email": "mfc-gf9rbqqpaiztjmf9uchnz-p-fc@saf-d9vz11wywbi4gg0j712476q6sb.iam.gserviceaccount.com",
  "client_id": "105452104873124370797",
  "auth_uri": "https://accounts.google.com/o/oauth2/auth",
  "token_uri": "https://oauth2.googleapis.com/token",
  "auth_provider_x509_cert_url": "https://www.googleapis.com/oauth2/v1/certs",
  "client_x509_cert_url": "https://www.googleapis.com/robot/v1/metadata/x509/mfc-gf9rbqqpaiztjmf9uchnz-p-fc%40saf-d9vz11wywbi4gg0j712476q6sb.iam.gserviceaccount.com"
}
