{
  "type": "service_account",
  "project_id": "saf-d9vz11wywbi4gg0j712476q6sb",
  "private_key_id": "d4e91c2e3a4b1418efe06e4cc1362d7688d80b27",
  "private_key": "-----BEGIN PRIVATE KEY-----\nMIIEvAIBADANBgkqhkiG9w0BAQEFAASCBKYwggSiAgEAAoIBAQDVHN6cGAluZRQu\nEGs60Czfw9ocQ69xEuIMTtkK0/dLkQxYoRmxZt2434EvbpOslx+3ZuxCeeDJx69Z\n8FqGwNMGCL6vbV1iwRt60bURFITY/rCKVH+xrGW/2iBUwXiUFr8DCpT1ReW/OtvQ\nHfLJd8BJBxUugVFXL2QHy39H5pglSGKi0XRMgOTFs09zRyhbkql4efTXNgsRUTCh\n5FAMgZIIeqwGWx5JbbdDeXnwzbrcwxvg53nUai5+oHRS5604LLfAhlkrY9clrdKk\nD1iJCTYdRbwKS4tq0gDH8PBuBJGRnaSdzksACZZAlqL8G9p+QhtQGpwC3sCnQLCU\nzeV0LH9lAgMBAAECggEACjxffdBSvaRptnev6sx+Z0X9Jx/iIJR3Wn98Ab7iERVX\nqjccqI5oBl3n0sslGSROD+1H2j6H2zE13SRD+NZwnEjVvc/LLTfYtcq2P2qEofaD\nrLU3x+UfovobVO7Q943rIT6EHo67pPZzAdk6ZM5VZDyMmiX4be9XBt/RjnbHJn0v\n3SV3LLn2FhpiE3m6xLIoppwtDrolNaO7jDQGl2nOTi6FtU5qaF4f+m4VTROeqeIU\nMZCXspIO0E57EwxBAQzRerGoVvEYBomioxq3CYs1PeIHACwXJXSag+dEGtwnOytv\nelOj6c+TIdzJnie8FI/ea4rzScVecH0iZMl9LLAtMQKBgQDsmyPxMICv6aJCBbq1\n1MOhPncdSnjrPPnKCal2e/Ppl3dFxEJQfwH0XhUjJ2plKH0bimU50E5F2zpjEo2n\nSOx48wiR55qR+FlHLjXziztqrjXn5KE3DbUsYSZN/kC+m+qMxRhUtbeyEzJde4vU\nvXos+q3pRpxN57R4VPg9s0GpkQKBgQDmlMFE4L4KhfFcU9gvO9nCchnNslYgrjlA\n54TF+DbSlzX0JhHAaNhYvQH0PrCOc1VtU3S/paA350NkBUKyu1EzJsc8L5oaSUYN\n3tsHpYXWPjkNFK5EtFEGNt3TxaWFoZ0AKKWDqZ3qz4aDHN3VisiK20Kf7j4+JACH\nOaSTtlDulQKBgDaNFl5XdnQYg8aBF6kwouIcSs5AC10BM/42+BFPRs9GksNNGpUA\nk2zJ/EmcntUv3pho8inAMyu7/dw1vN8i2xKPxhwNr/+TqNHWf63lHg/clqUee2T8\nDhdrVq+IvVi1DgDiuFdfhjjSYDxZbcXg4bhZG5u7IfJ8R4mu3YUsPSlhAoGANVhQ\n5liAXvrh/hQ/vZ3BIWU4ZwhNOL5V7JgjdZGZTVtCVjvAe51GADGqFBG00yAHsYVP\nS09MI+LTCn7VEXiYrpbYHSp+Inq1RFw8nCZFMm2u0UHpl2eIH0HuTCI7yxC6u+Cr\neixxpnNgkVDKWa8D+mwDm/CIYeP+Y0qIssvJKYkCgYB3cjFFZCHVqTZjpLH0Kxzo\nd451cJ1Bbo+yvjyYZ29G1so49Ip09pQVcoGEkoWKKKz7bHiDY4fmcj6bU7vJ1tEZ\n0Z4QVzzK3zyc4N6OVMnkBZKNqJ3CJCbVg2GLCRc131N8/MN5EjzTsA0gba89cc7r\ne8t0ATlmAAZL82Ib5YNZwQ==\n-----END PRIVATE KEY-----\n",
  "client_email": "mfc-zgu22m0kjccszc5rsimh54h1mb@saf-d9vz11wywbi4gg0j712476q6sb.iam.gserviceaccount.com",
  "client_id": "103913311088518169965",
  "auth_uri": "https://accounts.google.com/o/oauth2/auth",
  "token_uri": "https://oauth2.googleapis.com/token",
  "auth_provider_x509_cert_url": "https://www.googleapis.com/oauth2/v1/certs",
  "client_x509_cert_url": "https://www.googleapis.com/robot/v1/metadata/x509/mfc-zgu22m0kjccszc5rsimh54h1mb%40saf-d9vz11wywbi4gg0j712476q6sb.iam.gserviceaccount.com"
}
