{
  "type": "service_account",
  "project_id": "saf-d9vz11wywbi4gg0j712476q6sb",
  "private_key_id": "810919634d267d55897fa7698b02712d27091134",
  "private_key": "-----BEGIN PRIVATE KEY-----\nMIIEvAIBADANBgkqhkiG9w0BAQEFAASCBKYwggSiAgEAAoIBAQC/HJZqYdxA52ya\n6tJCva7qV41d1UmU4X0xXDH8XYbgKiJU2Z9RiUoFpYtXpfTFlEB5LjZSI5CF4JoB\nFOm7dzRa0FsV4ypJqy43Tqt7SEjHFeYaaH6utH+n7lfmW6KIOzLv/mEF3yyMVP+f\nIU+/jGW87tKKyYkachJ34kggJheiJj6SJLtjWpIHFDnA7enFh3beEuVSQ1ywOYts\n5s2WYz9XbYSwewxiN8l+OUOc0UHZZz2RZr74+0aB2JTevPE9l/phYJ3/YSp6jQc5\nkE1KTi694UCyZutnCydCYl2qdtFxlbekX9AJdPVlBjrRRpqrY/ngFBKv4EX0OPLt\npSy6CyDRAgMBAAECggEAAtxVsA/48QvFx2feb9tRA/b9ibsIl+7sJdIAeYuY2kAn\nNWfwh5Lrhbwdotk8Gb0HXgkADSi1IBvlkkCS4xh8syNNSb2Vw3aJgZBu5rCFTl2Y\njSqlQs423velXzBd9XYVZBxFrYXSr+MR1Hr2K6LZXwOgKS2tHLU6a4r6k2iej/HF\n8kGEDpmHI1Uw/tDjzAPTojCcTt0N3jJhWFQezhV6AJ6pnZQ2NxUN9a2BANB01x0S\nCXVucMF/nP8GhF3yQDweQ4LouwnuwXomDgaFvd658QQYBNLB6W7LBwKOtwwUFeqc\n+FnELXnwIL+3ojG3Z3ReSRf4h38LU65mMg5extpOAQKBgQD3Q98/HkppOdnHG59Z\nph1bL72wq53OnAPYr6C4hofwlNmf++36spkj6bZdiZ4ESaPPDbsKXvFkNKWiDvTz\nUodw/jaV1r8uUtU3RNGRfwNY3iNJ4sEgtyyNokE89l2i1Ja2yOc5a1blKLADYoTl\n7SAe34F57ekRdF2oXhAc0NfOsQKBgQDF3OUcNP3184DSJ44Tq6WyxX6RbanM54Vo\n9tL2/5qRR34sJRGwiGfVqpJg5z0/PVLrYA7lWh6qEQMPJ1eeXDlgg3pYBoj8kfP0\ncdq3hDCHIcFY8/qsGvB8cxeLRxJczd+3zGd8+v0GZqcDhmmbYrpl+PAePxNvSWNI\nWriYmEg8IQKBgAZjNXgu8yMmwG55UzOArA93+0F+HXSB6UOGvfMmXoqjfb+5RVuN\nk5Eu72wZKwDXWij2JNfOvhOlnIXENyW2AxOzLXvPcV7j+ugTmgpVKqP4ERdOiUis\nErWR9Hd7sc2MClyscfS0xijjVTCxMdeyuXqysWiR8cxmoijATVBBQOHxAoGAQzL8\nlRHiVs/2pmlMtZ2MTyUIEXg/PRo8kyORDtZMtp6jWXbVhTEuosClqkee44V+TfZ3\n2Kk81OGmOlVQSrZjvkWpHZBKog0n35NzhvRcTujF8+IY9q7Hkly8WE8xC1fYbWH8\nm9Pab3wZqPbTkzR6vftIAd3GSfuQvpghLaI6lkECgYBtEXmJDzTz4MnXh8m2IXpn\nBOgJ3BcVW3TeLrZKmx7WpVRp+XpFpTFUcmqmCt/fDhv/dyKGqaGmJJgr8XBfCoes\nyqiDfO9Mog+s2CKvXJLog9Wc/ZIUNuTwX78if3NJyZ9nlVrG9Jw5tDwLW2b4nsrt\n7SDURaK40MN7smLimEyUlA==\n-----END PRIVATE KEY-----\n",
  "client_email": "mfc-9m0egl9b01ukllxmj9i1koessx@saf-d9vz11wywbi4gg0j712476q6sb.iam.gserviceaccount.com",
  "client_id": "107166106591239764699",
  "auth_uri": "https://accounts.google.com/o/oauth2/auth",
  "token_uri": "https://oauth2.googleapis.com/token",
  "auth_provider_x509_cert_url": "https://www.googleapis.com/oauth2/v1/certs",
  "client_x509_cert_url": "https://www.googleapis.com/robot/v1/metadata/x509/mfc-9m0egl9b01ukllxmj9i1koessx%40saf-d9vz11wywbi4gg0j712476q6sb.iam.gserviceaccount.com"
}
