{
  "type": "service_account",
  "project_id": "saf-d9vz11wywbi4gg0j712476q6sb",
  "private_key_id": "3563ed7363f8bf0efd8f694c1a157fa59d1b93af",
  "private_key": "-----BEGIN PRIVATE KEY-----\nMIIEvQIBADANBgkqhkiG9w0BAQEFAASCBKcwggSjAgEAAoIBAQChdUMYPqVNs9BB\n6jdraOJ4ag+N+zJ0uedy4smHk7rpnIYaKQaltbwpUFPvyJ+aEMKIGdWo6QsZ6ygV\n5UyD09fo5kI6CWsHl1FXc+tJWvFwgrEqEEyavWhhQO0rQnWX6Aln/wqzSzQWuvS6\nuqX6uTDX0RfZm5HJW03E5ywqJ6WVmoS2OlPWNX1/akNSUnwejENgIjw85obfMK3n\nmpoYObQJywtuZbumnzJJqSPT65y9yHbX3Rck4chtcsC8Yh0FI7CSxT7tlsHeqVlP\nrGTSsWw4mMKnoJ19OBzkw4hi9BJsT4k6YLtN+6buIIbJZUO/RTtOlVYztHbMTZe+\nDZX33hB5AgMBAAECggEACser2XmNSzkp5Xdq3dax5ZJHREE0/DV8A4qqzqI0GkGO\nHpRbUkMRCL0emDrlP8HGCz+WVAxt5lFyFWGAO1OwmGc58sAK5QXbCM4U3oqeO4HZ\nAahMRQ9HtylA7It9EyMLRbtHOUity1AOOPgZ+Y8rI1hdkZ+Lxfg8+AbrRvaWB/1J\neejLGEctScSHkDlA5oZ3AE5Hov8/C+HbNQmlfgnZ0i+5ZseTDR1UH1C4zPZeCfvi\nR+SoHYQacVlZYuGck5e9W2FnvqzpUGalJ65bvk/4YdgY1gHmnPBurxMB4pZkCpPW\nHPMvXcqu9k23S1Hn6ByBM0VRo157VTOVYrFV2obZEQKBgQDh3eSdgkvAYvpFsfoT\nwp3OXQpcl9PP3/DO2qPiAicygFzSTWRbc9ndQXaxMQ7f5L1oHkElpwvqWm0t1Rok\n5JOSl862av6pzIyX1kmwEIclLF/Hk5kzgbvDVZcaqczGScREiv6GwV7mAl0GtTiS\nTxeix1r1MU5baPWkBrRCavmPrQKBgQC2/5h8cTpTdCDQR5V64RZ7ovjUgzmPUqoS\no5qovLvoIjH3nMjelo8LePwq41hIDPEkxmzsjCgM6R/lsc6uKhmviN84pUTXbG1w\n7qOpRYvD7baXTQxPyASSiIqf59McQoi7Trcd97GYjZHBWWTsSyi9uzV9RCbhT43c\nEFoYDvetfQKBgQDGowJ/kytTkrhPuuoXnrxx1FlcfRoGYwfAo4AlL4eRXlpDiVSN\nKSGc+AmOY3qVZPE+M/1PQ82y2LvT5uoLMAqojWF6BDba1c1/azF66c4w3wmM1z2Q\nkrOyYf91r4cri4xUS3j0wfLXjZSKZa3O3kgHHBPeNvKWaYQ+MLcvAi1gMQKBgHOX\nrgVlLFeMsjF+FiDhT2dXgWATZ+dtavqNF2NgnD08ZF2pToSzi7XOfVLF+nzAmA4H\nvMQKoD3PgBOCJjCDbWggyAeq9XoyBktgokaJJIjlfgHCbHV0vdaloxLwx7xBFsdi\nKG8oh6j6O8hrJEHSE/EM8POoefq2WsBYH+C0i6StAoGATO7WAK2SgBoze1G3DgWy\nasd0gQOtHWlio8TJIq+Jbixb0vpWvfjE69M8zVJ/nVf9uV1c1B1jv2KYCcUxmj5T\nFdwN0pp4Tlq4bDrkhRjrTsiAP7sofwW8TFMRkER+jVSFS/m4YlcdWpzwHFA2zEF6\nIw8njz6wk+mwdKBN4esGi0Q=\n-----END PRIVATE KEY-----\n",
  "client_email": "mfc--8schh3p3mvbqjrzqnr-f1lila@saf-d9vz11wywbi4gg0j712476q6sb.iam.gserviceaccount.com",
  "client_id": "109758431044608512344",
  "auth_uri": "https://accounts.google.com/o/oauth2/auth",
  "token_uri": "https://oauth2.googleapis.com/token",
  "auth_provider_x509_cert_url": "https://www.googleapis.com/oauth2/v1/certs",
  "client_x509_cert_url": "https://www.googleapis.com/robot/v1/metadata/x509/mfc--8schh3p3mvbqjrzqnr-f1lila%40saf-d9vz11wywbi4gg0j712476q6sb.iam.gserviceaccount.com"
}
