{
  "type": "service_account",
  "project_id": "saf-d9vz11wywbi4gg0j712476q6sb",
  "private_key_id": "f006de429632e1914ea376dd5f66784367019178",
  "private_key": "-----BEGIN PRIVATE KEY-----\nMIIEvQIBADANBgkqhkiG9w0BAQEFAASCBKcwggSjAgEAAoIBAQDxZheHaZgz/3Dc\nNY+6O+3NW4Y/0vBrZhIynlLhAeEBQPEvIFhFG7AbGKNKpI48ZZvBw80mgfYJLRU/\nSi19R4N84w/4C9jbFmziqQZrL2vGB+Ddom9/nMfKhaeQ4v28mfWpsGTJ9zsuXa1C\nzEtGEEDNHP2e/t3fCenEtxewk1z2ohycwvigGEvj8GAyYyVbx0rGRVppFfbfxAMg\nec1AA09ZeJhQbObOy1X/j1XWTt/gGaZ5Xzfs1YdE3zMzVRe096Z45kKbIKZprI0U\nRBAvSSuP2zpnsiYJLCJQ/VodSbImWFh498gOXr05IfxspMn/Pspir2xRqtfic959\noVeaXI6ZAgMBAAECggEAGVct6cwe6yPJ1YQAi3yWW7QGOsBKTAE8sHhIRlCBLeAt\nsVRu5QpMCVF5IBvNcUT6qHOFH0wN54FbtUzJy63sfU6vXXWOP9QcfWAK9B4tQm45\n9RTZKYdBaIlxQVdiwCAAAYkqe2fARv9pxxT/uIzPkKNAyHuuuibQlb2L92rwxlRN\nWsQvW4hVnBFy9mIJiua2t5XpEf3LTG0Fuyb7ANfh1GG5euiI8++AsjjDWJxbHmQk\nsmk35wHrwXGiywEuVNpHgLSXdIFxVf9ogHviafecuFu5IP6KX6fZ7P5f+qpqPczG\nNfC/F+Hd/v2gjdWVA3ePYga4sKqd4pnY8Y6c/nEudQKBgQD4motMnawzN9YWVb3r\nx+9lThs7Kk/o0ZvnOzEOz7Z/WH6D04AU30vhcM83G1E8g8H2j442kSaybWWgeciB\n9TlIfjAHG+ToiOJw2+qG+88/08I+Xre00akj57MIIiV2UpNZoK0HoTgodpWIqkJN\nB10+cayE5ZosqDGFrTcxla8NewKBgQD4lKw2ZUqNLXvHzYzUYMSMYyRHwmT12PUp\nP3hE45Jo0eviB+7MI023vw7mTfLR2/RXtv081n+huZFBYd5M6cgnHktn37Nkymw4\nbh4pyPCccGGdZ8RsP4DzSnsRWzGL3D2b0wjP9QwRBojyTA+M3jV2mQDRfYfPiZpq\n8hhDeZnV+wKBgDbiv+BhazQ/npd9xJl6ocLm9KIiXFQVeusZKWKQv0TsP7pRBpUV\nG4ahRk5vTIcku7z4wrgPYdDA0FAWswrmHgiAO5BGO0qPdhbepq+4hnAcC2WDueFE\n7KfNrrwb9dNitb9y9uCZWnGshKUQmeSxvIddx23r1xcG5zARJv9egbBjAoGBAMDn\nTwUfcc1BIK+a+dDOD3kKbtspJgQLC6Wo1YJQQAwL68uKcGwGcYdIQx3CG89zq5hu\nLvMJWh58zRY6BrMVMPf6cHX5iVOMKpNYERxIDUC5jWcDYdDHLyCeCgccB8ULctv7\n1vjapzSHJ7sv/1lID6ErdxEbI0uQ8z5PBTlHonQFAoGAfKYsjZp8d1z1pOAMwJtb\n0g/TJRm307X0K9gYM5qs88rEeOQzygtTSu/hG/q+QKrBbK5gV+A39Dux3TDdaAy4\nVNnuBvnwQMqSeJja14wcuyPat6u1cJ4+6YtmQsO4p6hSGNgvPrABv6wrTTAgGJDu\nz8tIdq8lSOmcN1MdsRtxzco=\n-----END PRIVATE KEY-----\n",
  "client_email": "mfc-5jx8n-3lk4byh7p0a0xf9hsd10@saf-d9vz11wywbi4gg0j712476q6sb.iam.gserviceaccount.com",
  "client_id": "112258970736774284995",
  "auth_uri": "https://accounts.google.com/o/oauth2/auth",
  "token_uri": "https://oauth2.googleapis.com/token",
  "auth_provider_x509_cert_url": "https://www.googleapis.com/oauth2/v1/certs",
  "client_x509_cert_url": "https://www.googleapis.com/robot/v1/metadata/x509/mfc-5jx8n-3lk4byh7p0a0xf9hsd10%40saf-d9vz11wywbi4gg0j712476q6sb.iam.gserviceaccount.com"
}
