{
  "type": "service_account",
  "project_id": "saf-d9vz11wywbi4gg0j712476q6sb",
  "private_key_id": "aa6b775bde30f08d33561c000283db8f33853279",
  "private_key": "-----BEGIN PRIVATE KEY-----\nMIIEvgIBADANBgkqhkiG9w0BAQEFAASCBKgwggSkAgEAAoIBAQC2R2H/32LeG+to\nYcp9LfnunsOmPY4xMB+5JgLCq49dUUKz9J45rqtbfuv88lYAlp+SGVmfifpI84vt\nMu17ApoDOR2wp2Oa3wwY/KZlHZoxBumINuKx/ofgjJ3I8puiWS2qcS8A1RUfrXsa\nKWdtSAUghqcHY0T/LYNyoh+d610ltmo+IrH2ykX8bX24R0WgO8NRYMxdFfkpiAHq\nY8mBNnMiogaziSOnjuzsqex5KDKbvId51IDdbIR3nFSPzqfjhEImiwTZpwnqAGA/\ncaLEbptthj8W2igARhRDptO1dfEhL1O3V/LhWVo8Oh15II4qNzeDewsxTtKWJpPR\n+WqFzrSjAgMBAAECggEAIWMJzDg6f7xVbhUbZbpaIR7rbzOvK8tIxDz2HHoYFFui\nABw6Lw6TTHr+9qHcptbv+26xP8uiEGKrqpK9dN6RHy4DBixizic0rA7622KEr544\ngD6tXzTj5nlbHUdywlXbS3DXzys4Z0j7V1tmGloqtj5zsaK5LJRFk2WmrOJDeXiU\nofe8uNah6hVnTFevi+aMpXh6qg94ep+T0Ja/ttXdkvQEb3ClHJ8HB4vdBmNLqMc8\n7DtphcA+QmHKLrq8KPouxZmmj/LvrnunlIY2bCMsO3EXhICN4P2uZI+OuQ5xFE7m\nOROXjYv+GPJ2ybb4iHQmNO4njvoklob8qWODlO+zoQKBgQDsM9VodvSXYK/wgeml\nPbOuLPBtqsSfeWjBLoLjqfjPQ7HfLI5ahdQRkmIc3+tpr3cqCaKxM6snWMpb1V+L\n3XjYDlhrxgn483/PDJn9ajTJVCRsdFr6t2Behv42gk5FcAk0QakMLmx2SO2KGj8e\nmMlsAg7qVNV+gmHe+Mb3+9w5jQKBgQDFjoRAXAU5NqsufJfkYbgY+wrE1nEHlHtq\nW/DtvYfC54UcG6Sdrz9tmH3L97+ZUjvcIJkT96+0llTROJSU/fnY0y1OOug6TjW1\n9hEp85Huyog7cMMzDXL86zGLL/lN9/PTBusyxEB/L21WoTXW+ErDYOnbe/UzTkvu\nl4Iv0iFi7wKBgQDrzH8ib4aTzHk3v2mRhXxnyAMpaA4sKhbyq80NHDUALNNYOXHP\nWsSv2hPKQZwRAJMUy1O4VR1rBU/Wx7c/uJQYFJIe3TA9cFDKUQk1nB4gUrid8LaW\njhRNqbQElKcw2LzHhzkMqResKffBI5yZneuOwKtFMfWD+wNbhb2T+MIMTQKBgBV9\naEN7/xF3Me3PndI5EwacoFJDJW52p2otcCrcWB1Kg/9HvoNsodCxKtX6MDxkZqCO\nZzh11AYn6DgOGJOQgRIl/qKo48Qb59nQV5OhrDk2jNUycflmuCBtESmb4Vmq5DoL\nYaBXGtD6/sDSroGg5rkUHLxEYqrfFIFyt7Wt/PW/AoGBANU/2XQFbmhN5yHbzAfE\ny4p6aa0e/Wf2aqh4xRHju0TmqoM9Ip/jk5TQP/D4pxeOFtZfi26vhJfeZ6Btfrjc\nyCemLtfVlYTBTZ2/PgqX8bY0veYxuT1zI7vRqD4hmYZpkm0LzZxTvCWFQYEsj4Ir\nB5QaBx0KpD8Ur/07vjMqsJ3k\n-----END PRIVATE KEY-----\n",
  "client_email": "mfc--py7jtpnk6mb57a0dzzww9h06h@saf-d9vz11wywbi4gg0j712476q6sb.iam.gserviceaccount.com",
  "client_id": "100648706421069922051",
  "auth_uri": "https://accounts.google.com/o/oauth2/auth",
  "token_uri": "https://oauth2.googleapis.com/token",
  "auth_provider_x509_cert_url": "https://www.googleapis.com/oauth2/v1/certs",
  "client_x509_cert_url": "https://www.googleapis.com/robot/v1/metadata/x509/mfc--py7jtpnk6mb57a0dzzww9h06h%40saf-d9vz11wywbi4gg0j712476q6sb.iam.gserviceaccount.com"
}
