{
  "type": "service_account",
  "project_id": "saf-d9vz11wywbi4gg0j712476q6sb",
  "private_key_id": "4c87f6a09e64cb0817e5533ab844ab91a9537e22",
  "private_key": "-----BEGIN PRIVATE KEY-----\nMIIEvAIBADANBgkqhkiG9w0BAQEFAASCBKYwggSiAgEAAoIBAQC2Yg+0GA2kL4HR\n0fqylnHsV9lzxHv2wlNPU5St8A5EbWxQZagU6tU0FxECd2drGIs2/Mzcp9blCmVx\neykBt4vnlCcFbTuhxQqauoc/LPXat/0L3c7VJIgVV09xzYqf4/huuZsZOer6NkPH\nV4W0CiXXBgI/RA/6vjooGvpZ0WBUn/Pljq1TJYjpj//26BqVEVS3rFSY4iRuNZdR\n2bHfh1zzWv7RO4O5xJxNThzd9kZkd3eva9j7TDthWORA9j3ZkCRxu7uqbqy9xlud\nf3bdf3XujsZzJOmCzn9w9FJWtSRh4xqSa1RAbkIISGDBEPomMNH+/wSH6VqTol1o\naBpVg8lzAgMBAAECggEAHQXb09/kA9WfhgExMMwqEt8j9n008N6ZnU0Cou9JhfAX\nxW934ORBy0lEZq0TowJD3Rs7in2W/9m4rOdZbjGELPTxhLaOP774Ygj+zrnb4dNX\njFTeviJTGXpMZSK9RZZkiVI18Ty7PNf3zzgJSc43mVEWeHTfShqNbKZmYnakKrMI\nsqykQ07jEvQWDjszHOkAPGCVkjpi5Uo+aioLXhGLVjXtqzyeq5YajhqFFiKi9JuM\nVCF5YzJV28cLrNbJbZJr4oT4OyyMARVCITklsdnOJd3rJ4ShcE8wo1zI/B1VvcR9\nXFQooEHrF1PtnkO7f+EZZ/pUpJNb0ycLKfhI+IEIeQKBgQDeomx/Z+aTMORMAJaP\n9UuTbExoF6NJKP9jJhgP4WQ5zUp0pp3sPbx2b7Ob5HWrbbHZn1xMW8Iaxt8upzPN\n7rj56EEvKKob2MepeD+d8fDr0TBLv+Gc8+T41MTKgEJAuC7WhCRJEGZfFCb+izh5\nrxIdzW8aWT/YIbN1ZLd1nTxBxQKBgQDRt1rcGu/cOJSzyFX53j3cENv19cVYnW4U\ncj5w3xyyMJBupTIm7oY3rn8BrsOEnsiKQuCzduvSo7tiyDctBKSc4Mu1B8ZnE1uN\nPVkCjUJ+Pfc7/ySK9UHrrkp5gTbHA50p/cs0nNWB9m/1rwAzM3p6VacSZHgP68mW\nUmapEeAp1wKBgBW5bbLk9ZfpTm2oJQj5G53QFIiXveQ2ru0C25g5GymUwa4uT/ys\nbYZ1EealXWIT+yXMKhp9Xax1OXP49tIieERSiIHMiwTam2kLBdIouKSaLgdGOwKw\nvegWAvnrmAturYtbK5tBkWu3sLJn7WPaVH85+5xrlxJE/5j18fz1EdstAoGACwvZ\nYVaZ48OnMYEP5kVqhLjunRoA9xXzwmfyGgfmfwxHz0wsRBi0QSKT1gbajZW/gmjb\nZRiSe1nceOuK3HguI4VDtZlfPfarD9l3YscGBZhF+YcK6bbZbgyUJ6pCtGDgWmHf\n3jmUlW/hndNF82x2uxLf5fwcxtnomF5mwekLIakCgYBIH5EedI4vYV6GSHnuMNb6\ntdGnaOiwuj8JwhUaQlv0ssHTKUR9TgcmIv77amtFjRGS+ZM9jGNig/NhKuGFNG/R\nnLCzdhxxBSbL4adveKWsoQUrpXl4fZ8of4zbs43rJqxoJKBTJEHZJnWl4GpTv9IS\nR5xEHFuot+Wui9wwxffLDA==\n-----END PRIVATE KEY-----\n",
  "client_email": "mfc-19syc1u440xeu1cl24jjjgs0g2@saf-d9vz11wywbi4gg0j712476q6sb.iam.gserviceaccount.com",
  "client_id": "113539323438777894696",
  "auth_uri": "https://accounts.google.com/o/oauth2/auth",
  "token_uri": "https://oauth2.googleapis.com/token",
  "auth_provider_x509_cert_url": "https://www.googleapis.com/oauth2/v1/certs",
  "client_x509_cert_url": "https://www.googleapis.com/robot/v1/metadata/x509/mfc-19syc1u440xeu1cl24jjjgs0g2%40saf-d9vz11wywbi4gg0j712476q6sb.iam.gserviceaccount.com"
}
