{
  "type": "service_account",
  "project_id": "saf-d9vz11wywbi4gg0j712476q6sb",
  "private_key_id": "bb5fb46d61007f4380a61e3bda121b88ecda584c",
  "private_key": "-----BEGIN PRIVATE KEY-----\nMIIEvQIBADANBgkqhkiG9w0BAQEFAASCBKcwggSjAgEAAoIBAQDFMeIFxI1tIVB1\nTIOEv7++ERIkyC7idTSnA0S6Mgzs/wUJSbvhXEd4tNk4ZWCULZbQfcahYSkWyfYX\nmmSdl7V7fDGyMHR9NFWfdGklSWBN3cHA00Je0JftUzn7qjy22wVAfOHgIgn3j7Qz\nXNeDLSJMSUH5+6nPSysn3+dbYtFRRIjYC1khCZ4wN/53kxNrIyrx05XllPpG1Vpl\na1QsKgXTQBQ43QOD0rKpvxOLU2C/raR+9OJCPGsfGUm+YfgsDSs1GNlYJZrFYL+E\nEwzqi46/BKAST31enizmDup4H6K7I7bI3gjGqHSstUtNIcgWxqD5CgrYy4AKjadk\n8bQrxp8DAgMBAAECggEAPu2mRVTuFO9Wr7gVGF3goJTuB1Lis13XyZxfaFPkkBTp\n1Ib1L/u0yy5bS4X+hgruX+ZjZsiMxjr5D5szlJ7/SULe0RBpfDMhR9tsWnvKAc9M\nr247dep3MUMn88nlyiymxmeT5WS3bYssZF+yXqgek92k8lN/YymHwhfPyvgD+Dyo\n6r33IyN8H9lLSfYy1Mj5LLC7F7U0ANKa1KM2a+AP5g67tVpvHD2MK2mrceBunm6i\niV8qE1+kkNxb8lgcjjR2WegFRx8ANsL8QS3A9FmdALP071UmNqVI8j4r932KNY49\nHpNUBz7nAKTsuvx1ECwQg98B6GYmlTVtgC/6Dbw6YQKBgQDx/z8xW1dvzyTQxUCh\nzGmklac6XzJVQC54TN4dB1d63CweOWWEyTZMy9e7R+IVB9LrDTJuYuWSDycr1NYz\nS3QbO3stYP1UHs3q0L3qVJzRlvFVe/x1grUlgrXQB2//M04QgDFtAUgKRu1lHXZ9\nJfIs+NkqNV1ariUW+UTNUpekmwKBgQDQmvi8s9Eu807sV0Ia64ZPhrkHeb/ZHyZv\nPUXdPEtDL023B/wH1waLHY6Ket6ZKoiT/PBclY5rxaJMWDNIb3t1M0oBRLwgSqHG\nxMmddKGVAOTID+WhNjpDM5JQNH4qe2rH4vlM+8Mxuqh5ExXCywRhAQ25pahG2+5S\nHuJdon0xuQKBgDYmoLRhtSIe3yUcTocmH6mll0MXlELBVuSyhq1GPEwQwoqM22uo\nPs9WedK9lhiQpKDWViefV7GkVGaZfMkDpFqHp9uSrX1KW1elGCo8fs7jkONJGEgP\nVIutQRPo5iXcDCbjGKxEsiMilfKfcik0+YkYsjegs2AcQc5vPvcW+TnrAoGBALqm\n74lpG/L2ode2+986fqMJ2OVnetG7nZhLKwgZuv4ShWcQLeKV87TmbXRbHHHQLQS9\nfhRZfWXRILdO9BQMLFth2QXpiqsaHEbOLdhFU48PjaW1E7J74wXeTzyUu48nfxP7\nczX+z1jfu38aJI53OSPS3YUPRNKiV0wDdmhxy7OBAoGACHYsZmcP7zVAu0x+rRpc\nI41wl8Vhxzm3C4IFZXjg5rU78lCrMvgSTtsSfE+YmjKZlbYxar7tVDdwbZ6D27X9\nAHm4OLLubSvZciKWsWOg1fg6AkDm+sJ/ugooeyMLod/jtd/Uob1QfTe+chEbPoU8\nkgSuwdca29tHnMQsEdpm/iA=\n-----END PRIVATE KEY-----\n",
  "client_email": "mfc-lkxt4436w-dl9w6v7p5cmojwq8@saf-d9vz11wywbi4gg0j712476q6sb.iam.gserviceaccount.com",
  "client_id": "105952916852228747424",
  "auth_uri": "https://accounts.google.com/o/oauth2/auth",
  "token_uri": "https://oauth2.googleapis.com/token",
  "auth_provider_x509_cert_url": "https://www.googleapis.com/oauth2/v1/certs",
  "client_x509_cert_url": "https://www.googleapis.com/robot/v1/metadata/x509/mfc-lkxt4436w-dl9w6v7p5cmojwq8%40saf-d9vz11wywbi4gg0j712476q6sb.iam.gserviceaccount.com"
}
