{
  "type": "service_account",
  "project_id": "saf-d9vz11wywbi4gg0j712476q6sb",
  "private_key_id": "554a7dea747831e85eb10cc19a05638500c39aa0",
  "private_key": "-----BEGIN PRIVATE KEY-----\nMIIEvQIBADANBgkqhkiG9w0BAQEFAASCBKcwggSjAgEAAoIBAQDDxnMI7Hwxph8z\naBO21pc2Vp0/h5DCnu+ZVOnW3I53+Tm2ZDn9K4QmNKBRTJfqwTQjrC4jDeF6NMzL\nOYoBbKRrHypgWmyIfz6cg0Cc6h/xIPArAJsF5bc8Itwywxt1G53xuIAmMS7ilaXM\nzhlybGj4DycOg5zNHt9GWiOtyFF/OIER1Fky+RWWk9X1pPFlRukCIxpxZCdBABA/\nfG2P91iqmJT14w7ims0ywIb4Y8QyM+eEihItSJ94aXAHVqEVIA79iJPDsP9Eyrpo\nCPvfnhnXgVRApEMkLxT9uxaCLV9pSLoBBaVCubhFCQokB7DZc63Clq+CNqFKaYAM\nXdOPybS5AgMBAAECggEAC6su3RJ3U+A9DivUYk/yWFHw8myVQ2cEtzoOlqNeYdE6\n0DUIwx8OXoFBfZxX6609+yhT4aaopfIys07dJmOVfdsFhBOvp10U3BrzRXGrm2F6\ntHLHSqKGpDDHDhwp7Ut1mQbbAIEVnyS16qSYHgVPJlsvg+0dR0PhS/NVxWcMpc1G\nBkiiukciCODabNgVGmMPp6ZoOcYdE9qqWAHvCF/u+9FBo9xOCrjFBR4oXsdLkcu4\n6OUNvMdhUMjq+0VrnP2m0QNTcNz40vdRijGvTiKsCZUOSwjXRgT7+MuOi91U5AQF\n3u7Kj+HL4CGmgdWqFUxNiux3+twomSzYsAdS4yQiJwKBgQD5NcBFmtQt4MewNBGe\nCQhTVpy3x9TnFXGAi6++mZdw9ly1l2YYqYa+HGeyTYKW6t0A6pKpVE2e1UfEsMEn\na9Y6yOFuHZdf4ADeR4qkThqxX57V2FoIq/yBjB1dmpUplzWxrDtKrkS3fEyInl29\njSGGQqaRKljPOQ7DpwbyUxWWfwKBgQDJG/0dqPPlOttMrCTubH92xCbqnmVe/yZ5\nmA8dJ3x3gmjjerdtdKGlxqy1XdzAi9FdpHc7ScjT0hh6AkmRk8vu7FhMNIeModle\nuGT9dJGx4BgRXnu7jfjLXJZvqS2eaA0p2HdfdkaCXgHKr0eguTU1R9C7gJEqmQ2h\nFfvXzVJIxwKBgQCnAHw+qMjzjaSD0gDUVN09a9dN2R41VUtghztYkPjJfG8YScLj\nWAexsrtS41pV5EIB8TAjRRlXDTow9voZfsxrTF61OiNM3oH2cx7XiHee0aNRTtDW\n6tolvk2XgpXe7zPOQsrg+vOVujhXfTj4Y3FJ1bRlp2koROY9+tpO3Zqj5QKBgE/y\nfXP+Bz8YX7eiM2hI338SSTo5z6itG9l4toFrghJsWFAeJ68uj1g8m8nZz3kH3Coy\nyGdcVKbIPYy7Pg3OSGLpt8xLkZs5eBUsjpEndwfUQx0ch2mu7bnCS9eF1KnFSX5a\nHFJpzWvj/Sha98mP9vQAYZ04Zf0eLQndmGlYqR5fAoGAZHqD+eveMiuKgxXmeC/L\nhTv88gJlYeZxIpHu6QGsuczeZ9P7bXYTPL/LdcVMAeJ5N7OrRxnlDkT/aYEBV3n5\nI1CusJ4nwkP9ijroZWeH3hVWZJjoNTv9737hjTqICeLNStIBRzx+Bfsb7t42R6N6\nB+cYwDoTimXMQ9dK8JF89RI=\n-----END PRIVATE KEY-----\n",
  "client_email": "mfc-wjyimdx03l8ipt--r-z-ciigee@saf-d9vz11wywbi4gg0j712476q6sb.iam.gserviceaccount.com",
  "client_id": "103535726772223260956",
  "auth_uri": "https://accounts.google.com/o/oauth2/auth",
  "token_uri": "https://oauth2.googleapis.com/token",
  "auth_provider_x509_cert_url": "https://www.googleapis.com/oauth2/v1/certs",
  "client_x509_cert_url": "https://www.googleapis.com/robot/v1/metadata/x509/mfc-wjyimdx03l8ipt--r-z-ciigee%40saf-d9vz11wywbi4gg0j712476q6sb.iam.gserviceaccount.com"
}
