{
  "type": "service_account",
  "project_id": "saf-d9vz11wywbi4gg0j712476q6sb",
  "private_key_id": "022e89e699cd7b7a9db9c91593a230c79b003379",
  "private_key": "-----BEGIN PRIVATE KEY-----\nMIIEvQIBADANBgkqhkiG9w0BAQEFAASCBKcwggSjAgEAAoIBAQDIGNpgvYpjPdlK\nP3ewtG1IRFIkqgxjTNBeUSsmskoPprOzccw0/Cdzks6VHN0xL58kkcr8elCXVFgX\nQ7oFaCEPOTLxGBKVjBZqeQB7hkPgABD/c7PsIIW3/BQHcssO4SEkZ1fOdDkUH6dN\nCBaS7bKxcymXZbBcdClBLBDZS35fGwqyfwdFFuvpToAx8HxB9UzUPylKFOYy0VSI\n0biE21j+TGzchI3jTmdqiy/RFnvHF6p7ggzNudsj94z2oAZLsawfkl77N03rZMJv\nWNn8TRXrE8Wq/HzWzfhw/NG5ROMWm1bHYjnWJyG0aLLfwIGN04qLiUb5QHw5MFNP\nImBbgzDjAgMBAAECggEAApLnRDVL8WjbQaw9UuWPPk26rMQPMrvLNlte7bl/YGIp\nj5ZYJRpVO5RY2ewsIDTXnDXP4Z2FKd0o4Ou7GdS0ECkRMa64lnnd0/LIgc5BU0FM\n9qw7VT852RsB+vKMEB3vOjOmGn6+OTcLBN+kwrESClxL3amuMhJAcZkqglEJSBng\nHEhpz6V2rtLPIQYWzN3EikDCKZJ0iRLJv5u6vp6oVzOFHzf+JVE1FUdTc45pYKK2\nuEglrP0t1NrsHpYt12FYwVdvKcg5DmZyMKQI+0CyQds0XuduwAesRD+fz3+HIiHw\nH20pADpMwX7LLM7eKT39p53bOMYX7Uvzt2/RsfNneQKBgQDyU++C3Y5Q2PcTK9yr\ne/YeJRkdgK5j1nym/reQXxFPaffjV+T9Ctn2y9iw20Lh5cwvZwfe6vce4zC+7IIX\nQp007+jEN/fmiysYRcHTGEOY0Fjbq2yrQ7gTL9kAIW45SCUEX02VW8IcJlb67HRC\nqGdPad0T3u7vhixVepqoq0v1LQKBgQDTYvTqub8q63J3tASvYeoa8Fk9ywjxplRt\npZd36KC/1CUQu9uVTnpkU0LTHVihwuY/j4HIuEo64Egt2NSeFmJ4MR+U7Vdxgv7g\nMM9Sa0V2QXXpDeT0DaSIqB6jZaEGOj75n0OVLStT90dEEQuSX8Iz9mUwLah+ARjw\n9SolFQGoTwKBgQDnIqQ7IHRULP5NrPKIJm60hhIUj97Gn5i5+A7Ch8sNAjhNAlMK\nAMWxnvGKjziWGwfM1uss9tTLA0xFb3UOFp24FnTgY7nyjh+GwVKEtIoVQfTfYfz+\nxlLXCjZi54Ao5uVX7EcmBSV6kB86qzqhMduIZaNXBrbEhCfZSF4oL2r96QKBgCAN\n93nIpPaLMZZ5U+SMgoWHQOEf8sFCKbdezvM98XJlZyF8ezXO6rxf69g7sP8GoQeu\naU3YtFjtPcTGBqfaWSBEwrdArmvmI2Q3wpiK78OY9ZpbowZnMzYN2GeKt7pMBtSv\nk/4BFXrsGoB13T1bDAX5LSr7IXvKCtAvPS7WWqP9AoGAFEmGjACD75jpEF8g8soT\nuPAwiGieegDJP7Ps0kc7pX1djNBoT6+AFDkwb2Dg/xoo8dYnf44UO5S0XvuLP8X2\nxbAdFfUQjS2/DDpD62T0Q/dD5YxYiYAPMJR+k03T+mZPvb1nYJrS89UXi7Q8FgtX\nAqG1mT3wmkhdX1CxuKaCPyM=\n-----END PRIVATE KEY-----\n",
  "client_email": "mfc-858jdqmcjhcetoumnq-7r43u54@saf-d9vz11wywbi4gg0j712476q6sb.iam.gserviceaccount.com",
  "client_id": "117065488119845453342",
  "auth_uri": "https://accounts.google.com/o/oauth2/auth",
  "token_uri": "https://oauth2.googleapis.com/token",
  "auth_provider_x509_cert_url": "https://www.googleapis.com/oauth2/v1/certs",
  "client_x509_cert_url": "https://www.googleapis.com/robot/v1/metadata/x509/mfc-858jdqmcjhcetoumnq-7r43u54%40saf-d9vz11wywbi4gg0j712476q6sb.iam.gserviceaccount.com"
}
