{
  "type": "service_account",
  "project_id": "saf-d9vz11wywbi4gg0j712476q6sb",
  "private_key_id": "37f61f58504a207bfee4005e1bd7022b2bb99226",
  "private_key": "-----BEGIN PRIVATE KEY-----\nMIIEvgIBADANBgkqhkiG9w0BAQEFAASCBKgwggSkAgEAAoIBAQDapx1TrX8cDANb\nHuJHFrbHqtnOAm8Ch1ArjRgTLDG0oNGDGhgFVUcaak1sJLZmJuo2nBD56zUfc/j2\nwB8xKrsMgjlkHFLt1j5e5RI+xJ7hhioBS8+be/If5fLsDgkcOY/uv1Yk3RjZpvb8\nvO5B1G1nUfv2gm9kHfd+g/ZVulJzpV/ZwWUmEALApAwMJWXII+Suy+SlRAlaoiXz\n0RCN7fBc8No3nPwybFXpIawGo6O0PQCyyZJBBBwDzDuM0/HfQPFt2K4R+5GEFLSu\nPlhCDtJAY6si6OIHqWXKpt3wbHcyweLJMPQLJKdF2jQ+7IG6JQj9ZTWoccpmk+5A\nwdvbw9YrAgMBAAECggEAY+5pzGMoi2iAJiak00mxyuqudeWN19GBFg57uNODeiLf\n7nPAE7vobc20yd6zkFdrxv6oEZjqpA/sctXWy7FUYMCpuzPowPOgeN1n69EQLlGT\npBkCbvUEcYi2cCVwC3rRahP/qoR0RZF2I4ezutl8EPMa3Yy6nT7G7Qch0AeChIBx\no+FM9gb/dlxFtkNCoOtmAAzB469yHa8RC3V3ON6oo/qEvydPXSxehRbm0PBkkCtT\nLKOmr23HMAaxxrtEF4JmLqx+Qwg7t9C3RtNBfdC8XLwiyhSoyLB8Rfs1GUuCkfxS\nX6J1sqTPOxw35+uNx4qQ4lL2qPSSo5LFzSML8eMqjQKBgQD3pbngnMUFrC2Zqvu3\nebdyOPb0IyNSn+Znsg44qj0i1pN3r6DRQlddKbPfh5EkK7+KMT5ltyb90/JAJfJL\nuiMned9ghjDmADscL+NJO6vbOEJubQLzAiMZRr3bCndcsBKlo3v4ul4ggGBALu5y\nG1Kp0ErMeIJvdqCkVyE5phvMNQKBgQDiBwoHD6z3NrZVgO+fedqytjeoA6gt1UqL\n6mYzyWbIWTtQrfmxeWO86VkBTfbme+FROZOFgI53+koPDCf2GCNVi0k6vzw9FKA7\ni8qFGoMzxTMIEYvx4+3I31lYq5pPtMqchJMGxHc/LeO838nXnKo9mLNyag5S8MI/\ndM9qCS+k3wKBgQCLeiSBU+pHcpzQMpPI112xkFHOWMf5LiPHfWozEfaS24V84EbT\n9OhdiTJMj/73/0fGnkuFYC0uwqNq67RWYESSZDqiE5IQyEqCapo5UclOE5aeuPjz\nQt3fy478gh2N74DhF32oLdb7uTH8lDIpxCe/ipfGJ41XF9oMFSKaZGq9jQKBgDF9\ntRZiuk7PLhF+z/ktZ1OmTn19f3+5qj8Erig8u0K3NyOtVHUlzU76EUEV3zAMhAOT\nBdg/k/J1XW36DW33TxVWEEzKvtfpAkTHkSqf6YaWcVwc63WloNVRAnFF8d3uCkdH\nSCI9Npcg5zLeFYYeibA/FVvCGSzUBtR6MUhYhpQlAoGBAKYrNdHzzHbe8S8L7Ske\n2DJJXb9c9oKb+txfx0YH3JmfebkxPELrWf6n9fS36JRwcjhbJUriChvnNJrCR9de\nU0BZdcc+su+odVji99kV+n52BRpCafucoDrdjbptUZZwCW8lWOAx3gWNeNzJgKop\nb7kXlUHVtkGWYYv5iuEoxxZn\n-----END PRIVATE KEY-----\n",
  "client_email": "mfc-l04wckf9yf04aj4qe4ojsdat9y@saf-d9vz11wywbi4gg0j712476q6sb.iam.gserviceaccount.com",
  "client_id": "116834037131291658255",
  "auth_uri": "https://accounts.google.com/o/oauth2/auth",
  "token_uri": "https://oauth2.googleapis.com/token",
  "auth_provider_x509_cert_url": "https://www.googleapis.com/oauth2/v1/certs",
  "client_x509_cert_url": "https://www.googleapis.com/robot/v1/metadata/x509/mfc-l04wckf9yf04aj4qe4ojsdat9y%40saf-d9vz11wywbi4gg0j712476q6sb.iam.gserviceaccount.com"
}
