{
  "type": "service_account",
  "project_id": "saf-d9vz11wywbi4gg0j712476q6sb",
  "private_key_id": "8b356bae932aa70aba93eafa55e97e9ac6a76f92",
  "private_key": "-----BEGIN PRIVATE KEY-----\nMIIEvwIBADANBgkqhkiG9w0BAQEFAASCBKkwggSlAgEAAoIBAQCzq40XLGIcJq14\n/YEZAERJvf/87PDStLKY+06YOA+oX8+HM/OKFpSizDHrFyKN6HGhaK+UR9EAuCP7\nPOs/+cNWqVGGZT6z2UXdHSG/S8HqdhD32LUSGCB7vLM5pokeTLvalp0QKo2ztpwd\nwePgPmTOnW0ioMwcZdF1r17amQGJvdhFSvhHQ4iLkKLJQyWUp0Pp7DI0zgMP1CRA\nXJRFfNcPv06b133+hLa5UmrEHut8slZlVD/bvssj7oTMgQgJrW9P3jv3t7QFGIp6\nXT8P93pozVawft235ckz6X/MFbnR9XqQCDyI6q2xCcE83IJJcObHn78hcAuyB2+L\nMa5Ky5gzAgMBAAECggEAAS7jTtLCJFosR7NChWBXN1o+PXNvIfrwErfTzIbQ1wJL\np2r9KbgO61+Hb3tQhRS2WbTBxqrp1Lbz//2vtTCSlOCDtRC3nbPdAqEI6SSUtsGL\n/1gdRbXyGxnsA6YsrCBDziNpMsx7y9R0cnG3/gMLLFQANUSY839+b3nRdDtZbId8\n1XZjJUsnN2d+mwq+rNncYfgHLUcuF97WKpCAfMtFu0jYmGrELzFQ5eRBDDnJ4a3C\n6H1COwheRV0NRubgMYYF2CIVgG0kk+FKcJyPlFG+Pv56j7xo/QoWJZOBpG7TpPjh\nnuoU20ifJj/6lHaCK5uQaUbcChedHbwzGzM3MQEa+QKBgQDaR0uWY/wTYhD9oM26\nEOmJMhRhoCZmx/O/cf1i6BFpwjHDPAj914UwDmlT2Pm6SAgIxr6r4ZDzVTBzymG/\nmPtO5nvYRmk+KJe5KNWy1htU1j8Fk+tHaIcM8oXS9uhJXJvOXWg1HIGezcranB/K\n+tvuLKUiHAxvbpn6nJ5U/tzBvwKBgQDSuDXDhz5XmJhMdK+4MKHLxGUo3iq8yoCz\nSraHdHEhuStRK9DbBKLEPDwAWOVnapoxgax0XaXTDUI4WuyNRD+YDpXftCTvcyob\nsYolbCx76Lr7/Wiz3zbhvb1JC3jP6Qw1FuwXj81jR8GWHe5AmhLMjNYSf9/4VqVP\nUw5UKp+ejQKBgQC9V5Tw2sBhy/JzH9b1LRB3axKU8Mf+5jnA+s9SyX25YLOr6Frg\nXuBwpD+ndRKDDVKy0ju5e0wyV9ZUytxpx/lPIs2Q+Nr4CVw7SHm+zM0elU5Lt1kj\nMz/a8lE1g+pRIN0icJIhaB3kNB1f7ogBmgPHIcEIyo3a53T4GH2buwyhnwKBgQCs\npO6vz5v9avHFGolp8LZvW+7B6By953BA9YLNQlL6nVrnO234NDkjbHKAmlUCQS4q\nR6NDCAM4AxHxWFWdfIBaFgEnctIcOZATdofIF3Pu5YRlt37UeJrfo3R1Z2fJeJhe\n2vP+bfyKTh1G4Cj3VwT2AKHYMFsRffQdJOCFhxKWdQKBgQDUEEYytdw9ToZrT7TL\n9UZIj+0QA1ENeIlg4zJvGu6kvhse66zqF+zaroIMFZxwIyFJEgPqhoXNUJu0E2Qs\nfJKIZ6qh3/5Tcfeb5QIpNDIlaI97ji+xS900xTxEveVsnVssxSXsurFhnQ8voSnE\nG/Grbc6f3lRixT7jBWtVCkKiSA==\n-----END PRIVATE KEY-----\n",
  "client_email": "mfc-290z3xnjpf-8zufj1nkgngrys6@saf-d9vz11wywbi4gg0j712476q6sb.iam.gserviceaccount.com",
  "client_id": "113952244450269475646",
  "auth_uri": "https://accounts.google.com/o/oauth2/auth",
  "token_uri": "https://oauth2.googleapis.com/token",
  "auth_provider_x509_cert_url": "https://www.googleapis.com/oauth2/v1/certs",
  "client_x509_cert_url": "https://www.googleapis.com/robot/v1/metadata/x509/mfc-290z3xnjpf-8zufj1nkgngrys6%40saf-d9vz11wywbi4gg0j712476q6sb.iam.gserviceaccount.com"
}
