{
  "type": "service_account",
  "project_id": "saf-d9vz11wywbi4gg0j712476q6sb",
  "private_key_id": "afe6b6995dd3552168d1c6c72bb909910910ccb9",
  "private_key": "-----BEGIN PRIVATE KEY-----\nMIIEuwIBADANBgkqhkiG9w0BAQEFAASCBKUwggShAgEAAoIBAQDB1i1PZRxa2SX4\n9UZrpI0wskivOfLzfiLkS1uky23arkIlUYzRU68qc5dqNL9CL3sCswk70h7XsGXz\nPVNBY/C4dj574M4Z2rQ7J7LQNgIrqcpojH0bqm8ENsKbVUTOqH+RjUmuSSwoWwQH\nVAbMjHkRog7R3jyawdzxzVHeSf05v+1cS2nosru5PJROJfdETD5/H+f06Mpk1INt\n/l8KppWv5v51jqCfaU4lJeS+PMLE6uW9QmopFK6CCJ7jvWKKZysJYIiER8JzQmtO\nKpB11luqQDWjW7cOloKjnkfscmIPFaHUuELfGyRTEtd4KfR6Bpqy3nlgFNc4nHt2\nqOPChbYRAgMBAAECgf9G1K2tyVcrklK1iECzaluzvvhixnr67OX3tzBSDevf0oR9\n1W11EJM00Y6VOqTyR3/KUg/KrdLswVIF+BOe7/iG3Sh+KDQDe4xUcwKVUAJ7Cn4v\nYMV7XK3TH2yDq9vgg+8NnGjccdR6J6OURulZsR/JiJlDSClK9irxVaIIwz2zHw8O\nTUHQ92g0T50ad2QI+k1yoENkoDKPNNk4ed6Jv8ZNxw9d7k/syYZ26E4qhzyKJTHj\nTF/4Db9b/SABm5gwhNw1FhUXWmbHEjfV71lY/jMpRnxBQO7YycH2D8ICLYdNk0ps\nej7Ic52HNH/Ejw3YM4ybfrOGnTPCY7qZ1VI5KZkCgYEA7u0Yt45GHml9VCQ6HlGA\nsEcecqRslqL7Du7s23Ae+5ai7HLvH0s6gxoBTRO8iaUG/1bkZz2bz3Xwt2xO4wf8\nc3bTJNV4/8DgXW93iAaSWv7cmBZJ65UrIlxMlp3cL4K6JF0dpMYPo35hP1lFCvCy\nXP3EcUWxccqdiE7n9jYCoV0CgYEAz7A2/NRv6anp1vmNMOfiBdrESQVWbJaWdywE\nkAKFcW0syodv13gjRDKNJaLgdxkcmJPMxnCWQDz3PQfVPBsYBxh3GERjVl/nklPS\nplFFHFR5G1nJ7ypuWRSqfOzEbCJCR1MZVzYWVjVr3grtnAEKDsv7JlgTWK39OQd2\nFK71mEUCgYBjsNgcVqfZLqjVf9wkJFuusa35pbONUumwPG7lzK2QyjSmtfoiM5Bx\nfVtHntGPGSWHSuk4TpOBh7NtxSpRPlbOkqjc+JlpFUBInCbiweM1RpwidUJYosAB\nsUNfoPRren9ShuvEgcOqsyO+e+/79ZxmgpgBr1OvqBv88PeGWtjUHQKBgD2MfV9E\nHb5jqncZEayyq5sMkCsLt+cKYaEDnH6JIL7SmfmTVaPHaLwnNwk2Ucs51+2nr4IH\nj5+N8b9WeO0NInvH1lOMwNuyJFCLItxDLXYN2q4uV9fW/UjNBRFsoXFiXb4BdHsR\n/mCiCEuPdYdMD4z/Cnj8lQ8s0OR7v5S1nPb5AoGBAIfks/LqUlivwOSuFD3RKuFH\nO8WDTOE8zps9wGBQjw+7TbBrhH3EGMs1gIH0LbYnekDaix+cDX36FEqQ5iWp4Ba5\nyn6oMeyxjc1gJmsbpH841a6qlVyzX4iPiPQfdcXxfpjEqMBEWFSW29b5IAD9mK/W\nZMOuXYfYvty8+o99EE12\n-----END PRIVATE KEY-----\n",
  "client_email": "mfc-hlbp82e0d4wtbfet27h4r7sazo@saf-d9vz11wywbi4gg0j712476q6sb.iam.gserviceaccount.com",
  "client_id": "107660148083958876169",
  "auth_uri": "https://accounts.google.com/o/oauth2/auth",
  "token_uri": "https://oauth2.googleapis.com/token",
  "auth_provider_x509_cert_url": "https://www.googleapis.com/oauth2/v1/certs",
  "client_x509_cert_url": "https://www.googleapis.com/robot/v1/metadata/x509/mfc-hlbp82e0d4wtbfet27h4r7sazo%40saf-d9vz11wywbi4gg0j712476q6sb.iam.gserviceaccount.com"
}
