{
  "type": "service_account",
  "project_id": "saf-d9vz11wywbi4gg0j712476q6sb",
  "private_key_id": "d6aeb2ed494c09c9762e6957ba07e96feeec035c",
  "private_key": "-----BEGIN PRIVATE KEY-----\nMIIEvgIBADANBgkqhkiG9w0BAQEFAASCBKgwggSkAgEAAoIBAQC/PQacIGbABn8s\n7+Ks337YMMvYBRk+6v2QEvKlUXGd5b5z+BrFm4jq4OxP50Q3o+BG5Im2hXH0MSeH\nzWqFKk20TyymOxGqCQcOc2QBWw+J3bkHJV9w4B0iJjRoDABuyhw7+YfGscxs4Mug\npH8zJcYk2qR/d5VD3a0z9sIkPGvI3c3e9UZ5NP5r9YL8AMxdTiOdkmFDmsfgLCp8\nj7zjHl/wz35q8h+SZbo5pRpioMtHjNDg5hFYZGwlNTTvfBgsU0xJws4DQbNqNKmK\nWqIHnHXH4vJtfPUCLw/tv+Xavit2WnBrlvg//sPDLFjgX9ro5kO4d/Kwy/nFi3cw\nyp08gPqlAgMBAAECggEAI8m/WWtk3y24EghIctKWcc3b7+6wVUpzrkkleJOfwA1V\nEW3OUMm1G0OBZcihRwpXd9zf+rTJaQnj3HGwLACJLyOb9vXZ7einleg5QFmytDm2\nnSQ80qpWOWRN7WTFlfYjx4OAicoPOBbvdH4kQcWhaZczLpmJ6PvspGta1J4sC5hH\n1AlNONWYByTbF8FMcy/61TeoRKylXaa4ufh/EeGO0BXfAbXeUTR2ZWHBpXoFTbLO\n0pzut3hU4kad8Kj3M9vKVol/D0MmQniVxjqFn/AtzTsrQ9tunoe72xN9VXYcA9YF\nd0VTB3UVG8dRagG9KpFUsJvntKkN3Zz8ZqmfUGa59wKBgQDe08wKEYhb+lThscWf\njMlJuaGwwhuAXcRfIhuEOUKR4RS19U5+nw7B/6WxnLzs5GfvDCKkR3JU/dGhkkxh\n2cVaeCBMSyxVxUNi9iXAwLSQCIk2W6k32mehEg9H/0vqJxc6fJuAuuC9mrm+GlNx\n+jH2jau1IYXOvJeP1jibsy0dJwKBgQDbtVaGiJMOqAE0pHKW2dcfZOqNk/YcI5Y9\naUTz+OHP9+YihqHypZzB2uAGlz7Ov6bpYOFUnX6kvs2zgMb5HDCzHoZeF+3XgqFO\nHjmJrDqM7wPkuu154bXpjht1T9uM/JqMam5bgJCIiQTxZA5I7WZYSzudEwVIdnel\nHANBGv2hUwKBgEkohowjt35jUS0MndLFeWzwOor7H+ZkYs3NN/WQiy+0E4WuNYhT\nFphRJAiNamXok8sjU9hV8M7AyuveSZ+yzR3n5MrHv5Wlf3tlT33ahy3m743eSE+j\nMHTspgHAax9EmFbGhJOeR51YyHUG1bDNMUw+tUpx6Cm5N5WtAsbz6/LvAoGBAJQx\nu3whMPgI0E9ewMAJjbXqTt9SNwYB5vvjPpRFgqLRdlRBdYkCtjp31PX9HGs+EGqI\nY1S8qsiavoreSNeMcTjQVRewkkf0H7NeZbb8Cb44Fes5PqcgXKB9rv2w8MknNWOT\nAn8Lt/GwYjokIBKGtqrFjB9FziFzbv5aZ8OJXhxrAoGBAJIyL41dwb6uSbUGl+yn\n39NZ//dbIMP82ouk50bnQrpww8zVkkphFeCL1xZNLulYg2y/vhXZ+d07IXJ0D7au\n5/Ak8lT6LDWm/uYcyHRpdvdaR+p28NBMOvXiKs6+L1XDyRonh9INWgMlqQBJc3pM\nojwcUwqFUX0VGRjL0c8aH+Uo\n-----END PRIVATE KEY-----\n",
  "client_email": "mfc--q3qapvkwdzv224wrqy6at36v7@saf-d9vz11wywbi4gg0j712476q6sb.iam.gserviceaccount.com",
  "client_id": "100620689952992135563",
  "auth_uri": "https://accounts.google.com/o/oauth2/auth",
  "token_uri": "https://oauth2.googleapis.com/token",
  "auth_provider_x509_cert_url": "https://www.googleapis.com/oauth2/v1/certs",
  "client_x509_cert_url": "https://www.googleapis.com/robot/v1/metadata/x509/mfc--q3qapvkwdzv224wrqy6at36v7%40saf-d9vz11wywbi4gg0j712476q6sb.iam.gserviceaccount.com"
}
