{
  "type": "service_account",
  "project_id": "saf-d9vz11wywbi4gg0j712476q6sb",
  "private_key_id": "f02b17598aa9450a72fd800354b83ff85c48f3c7",
  "private_key": "-----BEGIN PRIVATE KEY-----\nMIIEvQIBADANBgkqhkiG9w0BAQEFAASCBKcwggSjAgEAAoIBAQDEWgAOkE7QInJT\nvs4owdAf0CHEXo02peji6kkgP4zbLf8Hru59mwA+3fBCueDw+fllssdpVxRHLxyV\narBtYnV3Jz7dnJRIUxLgB2jRKno3aNwOovnZW4sRz9FAfzHDdxSVkhp+JntqG8Yk\nGvgqePYM/n81Vmgin8FMJCXXvm056KVlhKwdFQjSo8FaiyB8pY7JP2nIitI4fB4w\nEgdu5KimNsFHNzrnypqHhGtt17MMhlsWiPzctRlBG9R+DiCC67ITFldcCXboBmnZ\nXRQPmAVUZxH/wSw8E1I9CIr1LXhHbMJmmZvR1fE45RfZVORkNSCGmcuQtYeFmGF8\n5Artp/SHAgMBAAECggEADPETRXwRfC2pDdTRT2WaGCuAIXdLi3YoAXAIkQ2SdSfb\nW8avhXisukTamMTm19TbsVS1SNldrTHXvalu84BX1oCwGt8+wf2a8uH9VwjO582l\nI3nU45SuRLN6Suv9r0p8AT4q00HDqw/yYV+kF8VdQluYrgu1IjZLAUyPCfqAX7g7\nDKx7DV5RfhKv4Pq4tQr1j3QFs1tuuf/f3yqDExx+YNWBe3lO1W1ltB+F0pheyH6Q\nvtbuhkNZV01D1UrtKgaskFT9TxP1Natcua60YN3X155rv84VvmDfneixoVPYZ4HZ\nBtb662er3yYmMWH58qHnsgAoqJwRxCp/XDSPHQ/doQKBgQDnclG3BDnZw13AN+qp\n4yo+zvYNCRTIkcp4mkJqQ8a+KtFvl5B1q3I/NwyaDYBakNEh0g2TDHfPeh2s6GNV\nBbJsaBmMgjtTtFVCtSQ7W5Z5PAdQgw8P/evk3Kw41uT6ym+jiFYyWFQj/p8Y7SC0\nzLyKgS05AmiSYD26lENEwnwbyQKBgQDZLpARFDkyo8e/6pkP2TL/VFinxDTLSndQ\ncWxj9vc8BdJGv0AhH6W2kCP5K+qAVDqRKCYiLK0b0gcMVlPQh4udfG6N+FWflczv\nwADrsXrnNIVkDHtaTRNrdQ+o1UzSD9T0cPqN6VcUP9HB4k73QQxNP+pLD4yoIpy/\nl6E3q9YVzwKBgQCR85V0REX2/SxxutFQsOBDG2AueDuS/90ekKixOmxqH7ZTGNEQ\nYz14f86Cl2EJu6kmGsBUqtgjDm8ISsPZKe6KTltOMBIZhu79Uh23ENqjOSejrgIh\no47OlBpG/b0IKgCcr60rsmfdCwRpQ6AMY8/ByBQsj0hChk5nCnghNEPvgQKBgHWP\nWdaU3t1FgHOnNpE4nf1OF+tALt+4AFvf+a8m2O95qzg2gC0t51KqNX7EQdyTO1yl\nofavvkin6L7J3/ap2G44E9Pvj9GhkdxZT2ZFnOSYLnhYtVDNFez94asfQsUWYsyq\nd0XoAAXrAcz0hpAaeuE57sYQta+xhK3FEzSCZJFLAoGAfmzqI7tLl8RWCIGNgad+\nONDCatXadK7IsIZZuNBQ1SpmaKCa8JRh4LP0OyPTXQ4lIKGlvichDS5LRELCE0e0\nNsidZ3UvLTxjIV9tbEsTCC3etPcY9scUpUcv0sB6N9Bz10yA49Qc0Gpxi+zG6X2R\nlQaeGf+zWhKs2OcUTGcOPhY=\n-----END PRIVATE KEY-----\n",
  "client_email": "mfc-kd171lbqiz0r2ox4fbrrdci027@saf-d9vz11wywbi4gg0j712476q6sb.iam.gserviceaccount.com",
  "client_id": "106245516765729441525",
  "auth_uri": "https://accounts.google.com/o/oauth2/auth",
  "token_uri": "https://oauth2.googleapis.com/token",
  "auth_provider_x509_cert_url": "https://www.googleapis.com/oauth2/v1/certs",
  "client_x509_cert_url": "https://www.googleapis.com/robot/v1/metadata/x509/mfc-kd171lbqiz0r2ox4fbrrdci027%40saf-d9vz11wywbi4gg0j712476q6sb.iam.gserviceaccount.com"
}
