{
  "type": "service_account",
  "project_id": "saf-d9vz11wywbi4gg0j712476q6sb",
  "private_key_id": "a66367969c9cf13ae90f5462603ff6543000b622",
  "private_key": "-----BEGIN PRIVATE KEY-----\nMIIEvAIBADANBgkqhkiG9w0BAQEFAASCBKYwggSiAgEAAoIBAQDJkMYuLysEorhT\ne2eqmewb9vYSlIU9r9zZ6D5v0RAME1QphW1rzyXSR1b8TT6JaYXHKjoaJbuQdCDX\nuK36I6itDpNyMcYCAGL96OyaSeDZWNFHYmjcyiE+CyJM6gQOOk+yn5r+xEwPwkmy\nJu3yFMkhLRFM6S0L9OF0YtPIyJGfKQPXiQrQO4kOZ9JotcT97XlKN1/PTDKF9edW\n3kJtP8tQzX7FCt41lmC36AxVhWNM6uaX79puRukFMdHsMPssTCuEn8hjNU4pvEvJ\nrNNCy9bWFArB3KyxZD3iyik5ZliDXhzQBnxabR6YiyPNfnHKS+XsnFO47UMrtocu\ndzRgT3QrAgMBAAECggEANvjCa98WUt3T+oSZ6bev4pKQWtHhosi/KTjDKniwcTKm\nTeqjRHdKv9YP/aBNcWlzgDVegjoPNN7PBDZMUH+AJa5nfQnhEDOty8TGHnAOoAgu\nj1Lh+XEw7rxXnvVlpMG3caZAvcGoYtXghnNCirargd5KLRkc3XlsMXMwgj5dJLQt\ner8BJ0p7kEQuI2o/FrG9WwrBKm4/eaGgdH5Z75S4O+lo42XZaBWNFISFPHhyuSPw\nnPOSWfChKyLrLj1GWzfQZMWa4C6rvWpOlsqlgiXCBlxEMh4I3w420xHTgQc2yfSD\n9+gYLEXBgrtE7N6CyoTMrmzvZmaF11UzgSJKOSJEaQKBgQDmachgcgI9iOg6vlst\nKg552XpxAGjX+1nFX/RkjdECmvqdRT/FYi6GozvajNHAQ6t/BpzuyrAlO5ameiTM\nb3q/xoCKX4vFD4cug6VXHPZKNL6V6X52y3capdYtJVXHoA7dNrSq3JKm25bmVXL8\nOFK9HlMrN3JgEgEQ1Pcu7lNveQKBgQDf8ufN4J4LUqCQqQJZicus78JHivwMNEUm\nCaLl2C0NQ8wYPKFFEfRMuFiNaFeGDXEjGxmnO5c8Y7gVQ6Y1nqxQ2326aVx3Gryb\n1hXcXzGJGub54LUxjMPh3x8o8mcfK0NrOGj8BKWkEU3+AJQauhciYsxND2RpOqae\ndL7B7aQjwwKBgDNcp0cggvFWoHXf0xFJS7rLyOiBr91dcVB3KFJ17n6HL5B5TFLi\npP5sSr5YH7WdIBCL19W/Ju7VzqpDlgpgW1t+k07FJ7IA2SB8RhIaKai3AzkFuKQg\njOdKymh75xg9zLJxLGreCm7ZilTD/YLNx1vS87UxgfR6bvRilMtIYx75AoGAfyGR\n3hnpHlxlsjl/j/zdlur0y1BnDTaPGqzVwM0bpjAaqJeipWcv3G26N2xIY102IMu9\noGX/0NR7J/cjX8UX5T70/OHbD/Ipp/28o0GXCVIwVSHvOpXCjXLwaXpSeCtDNpbr\nYkXxElaQg+UoLpP9lhOoDwbx5ZraA5IayFRznakCgYA1mz1OYTABfM6AA1qHUGep\nrV/oe7pqyuofdfazkobbYrpFybA57Xme6KdxMp0hgrcqu+WeoqH+tixi6JXDl+J7\nbDYCg7WPpTnic3F5Pt4CbmcmZfixVhJ/Qru5Yl2RoCuzyWEEPM48JF/jOHqBDtNX\nHDBHFEFYUd8gFRsxrw+qfA==\n-----END PRIVATE KEY-----\n",
  "client_email": "mfc-mow1b0i76378dsqjhxhwrkeia9@saf-d9vz11wywbi4gg0j712476q6sb.iam.gserviceaccount.com",
  "client_id": "110933514025047658761",
  "auth_uri": "https://accounts.google.com/o/oauth2/auth",
  "token_uri": "https://oauth2.googleapis.com/token",
  "auth_provider_x509_cert_url": "https://www.googleapis.com/oauth2/v1/certs",
  "client_x509_cert_url": "https://www.googleapis.com/robot/v1/metadata/x509/mfc-mow1b0i76378dsqjhxhwrkeia9%40saf-d9vz11wywbi4gg0j712476q6sb.iam.gserviceaccount.com"
}
