{
  "type": "service_account",
  "project_id": "saf-d9vz11wywbi4gg0j712476q6sb",
  "private_key_id": "eb0295368a6e8675ab79010b03d1e85198fe3206",
  "private_key": "-----BEGIN PRIVATE KEY-----\nMIIEvQIBADANBgkqhkiG9w0BAQEFAASCBKcwggSjAgEAAoIBAQDxbYMHMFfiSdIq\nseQB81VfB+umq/Sdripb1w9+rW2tBawNV8Mk3f5KiraV7R/pYrQnhrkMPvYeEMew\nnWa8bTbAn1lpgpheNlX+i0kVZ6PEGlhvtSTXJkJiq2WpiYEiZIXzePQquBNFXsB/\nbQxaXvldbqXnfMwN3o38sprHjrMgz/+7AdeMJlv4C7aFrds/jeCvQWUgnsqdUS7m\nRWFMPVQ/sZ6XTYvTgxC938GLvcW7Et9uDwaccTHDjUc8Sl2V3zoYv4Xa9MkHObES\n/YOhlLDtuaMmOHledCq6U8WwmT4K16x3F72hp/yCUuWWHBkcLqh7BWjYLKi4gODW\nxH8QPpWxAgMBAAECggEADAB/tQnINK2qzwiM5zPrmI/SPTTrMjOIU4x7bra8bw+L\nIBau0tReYeJHdWiWX4nSnuxpopw2rAP1iWgpxVBAmo7RaRde78APwlm2RmQilgsh\nPlxo+nEid7lBko4NZ2JL7nCi4sTH4Hj3ZN5M8OkryGNJyBpCIqZftKJEY4tKiGT1\n/1mTCEuoBNYEH2O3C4IWfwxIul4mqCNFl0q9QsIYnuwgEa4bBMJkI2bNVx5P9EDx\nCgIEZ8YRWt0VuJwIYj0DaTQXTZNqBZTd/mWjhPmeCk4ECTE2IQfnCK9mA7IK0XHd\nMcSLdp2BRwx+lw7EkoZK4uXcpOEn/JkjBOH4c1ZaYQKBgQD7hkLgU7owTaoaiU7w\nRypCe9JMKAW73LjwdjO5VdubM1AWQEvIaBGYZ0hZs+MQEumH7OaLvmjRGL8qSWkA\nJIdHoTngoI9sh1OKJk008dPZJmrJQHm9v2VQnfi3DQtQJrUEGKj1zV86XmfjmXLn\nMVmn7/KFX+8pP8J1IM0KyiCdPQKBgQD1uUIoQw4DFO1mISgx6B0OeZ6TLw94Land\nvsamvqS33kblY5C3aID1Igdlff2rjgECaTAl3V3vwlfjnMfUEigzWnz2WDLKRTYs\n9ELHfOdsIsQPO+xcNhQIbKBOW0Kc/5VUAeQTfDQF1EKR0N22c6SlTUEgix02utD+\npWNQBrjJhQKBgQCGrvUelBbuCJhej0nyxdiuMwl/+Cph1yY8tL6rrnril056K8Go\ntXk+h4epaPbcQ5RDUap+B96uoLa0mQydo/HAfGe2jaNfNPOZ1TqgcCHFdJnX3CuU\nXGmPCpgExPpa1+80G1RWEru8UJMGv8NUYwukLotJuf4hs1+YQpEpBuUB7QKBgGEy\nBWQtmeZIKdtC9EZBXPTz0HDBpanQzicjJiqgsED2kC5+IqkZkiDkc+6GVoe8ZNPS\nTbQ8isKiqecjhbtx7yrY+SLsIjL2C4bem2eTFWslmU25UzXqQiRO613zJTc6tZOE\nJ/Y5I87Gdgp9hqV7ur2UAFXiEQ0r+i0vuEfYUNGNAoGAODZaAsVajV2I7VGsEuVL\nZ3cVFyeIxDGgN3MSOOjbFQYzxHJsD5KfctQoCSl9kXUOItpSPXEkMy/Ur0zOhAS0\n5v9+YjLQ8RBttQmDhg4ZW9VI/VTv07Wy9cc8J8Nh2RvQEZYDPuL2FqfkRcgF1rib\nrCi3jVF6Jk167VM79uOLvjE=\n-----END PRIVATE KEY-----\n",
  "client_email": "mfc-8d36u6yy6t03gzavo53tjh9o-x@saf-d9vz11wywbi4gg0j712476q6sb.iam.gserviceaccount.com",
  "client_id": "107261251716570309623",
  "auth_uri": "https://accounts.google.com/o/oauth2/auth",
  "token_uri": "https://oauth2.googleapis.com/token",
  "auth_provider_x509_cert_url": "https://www.googleapis.com/oauth2/v1/certs",
  "client_x509_cert_url": "https://www.googleapis.com/robot/v1/metadata/x509/mfc-8d36u6yy6t03gzavo53tjh9o-x%40saf-d9vz11wywbi4gg0j712476q6sb.iam.gserviceaccount.com"
}
